$MeshFormat
2.2 0 8
$EndMeshFormat
$PhysicalNames
10
2 2 "FRACTURE_0"
2 3 "FRACTURE_1"
2 4 "FRACTURE_2"
2 5 "FRACTURE_3"
2 6 "FRACTURE_4"
2 7 "FRACTURE_5"
2 8 "FRACTURE_6"
2 9 "FRACTURE_7"
2 10 "FRACTURE_8"
3 1 "DOMAIN"
$EndPhysicalNames
$Nodes
217
1 0.5 0 1
2 0.5 0 0
3 0.5 1 0
4 0.5 1 1
5 0 0.5 0
6 1 0.5 0
7 1 0.5 1
8 0 0.5 1
9 0 0 0.5
10 1 0 0.5
11 1 1 0.5
12 0 1 0.5
13 0.75 0.5 1
14 0.75 0.5 0.5
15 0.75 1 0.5
16 0.75 1 1
17 0.5 0.5 0.75
18 1 0.5 0.75
19 1 1 0.75
20 0.5 1 0.75
21 0.5 0.75 0.5
22 1 0.75 0.5
23 1 0.75 1
24 0.5 0.75 1
25 0.5 0.625 0.5
26 0.75 0.625 0.5
27 0.75 0.625 0.75
28 0.5 0.625 0.75
29 0.625 0.5 0.75
30 0.625 0.5 0.5
31 0.625 0.75 0.5
32 0.625 0.75 0.75
33 0.5 0.5 0.625
34 0.75 0.5 0.625
35 0.75 0.75 0.625
36 0.5 0.75 0.625
37 0 0 1
38 0 0 0
39 0 1 0
40 0 1 1
41 1 0 1
42 1 0 0
43 1 1 0
44 1 1 1
45 0.5 0.5 0
46 0.5 0.5 1
47 0.5 0 0.5
48 0.5 1 0.5
49 1 0.5 0.5
50 0 0.5 0.5
51 0.75 0.5 0.75
52 0.75 1 0.75
53 0.75 0.75 0.5
54 0.75 0.75 1
55 1 0.75 0.75
56 0.5 0.75 0.75
57 0.625 0.625 0.5
58 0.625 0.625 0.75
59 0.75 0.625 0.625
60 0.5 0.625 0.625
61 0.625 0.5 0.625
62 0.625 0.75 0.625
63 0.5 0.5 0.5
64 0.75 0.75 0.75
65 0.625 0.625 0.625
66 1 0.875 1
67 1 1 0.875
68 1 0.875 0.875
69 0.875 1 0.875
70 0.875 1 1
71 0.875 0.875 1
72 0.8 0.8 0.8
73 0.25 0 0
74 0 0.25 0
75 0 0 0.25
76 0.25 0 0.25
77 0 0.25 0.25
78 0.3 0.3 0.3
79 0.25 0.25 0
80 0 0.75 0.25
81 0 0.25 0.75
82 0 0.75 0.75
83 0 0.125 0.125
84 0 0.375 0.1875
85 0 0.1875 0.375
86 1 0.625 0.875
87 1 0.875 0.625
88 1 0.25 0.25
89 1 0.6510308204914619 0.2516269262807164
90 1 0.8502577051228655 0.3129067315701791
91 1 0.2516269262807164 0.8489691795085381
92 1 0.3129067315701791 0.6497422948771345
93 1 0.625 0.625
94 1 0.9062500000000001 0.8125000000000001
95 1 0.8125000000000001 0.9062500000000001
96 1 0.9375 0.9375
97 0.25 0 0.75
98 0.75 0 0.25
99 0.75 0 0.75
100 0.1875 0 0.375
101 0.125 0 0.125
102 0.375 0 0.1875
103 0.625 1 0.875
104 0.875 1 0.625
105 0.25 1 0.25
106 0.6510308204914619 1 0.2516269262807164
107 0.8502577051228655 1 0.3129067315701791
108 0.2516269262807164 1 0.8489691795085381
109 0.3129067315701791 1 0.6497422948771345
110 0.625 1 0.625
111 0.8125000000000001 1 0.9062500000000001
112 0.9062500000000001 1 0.8125000000000001
113 0.9375 1 0.9375
114 0.75 0.25 0
115 0.25 0.75 0
116 0.75 0.75 0
117 0.125 0.125 0
118 0.375 0.1875 0
119 0.1875 0.375 0
120 0.625 0.875 1
121 0.875 0.625 1
122 0.25 0.25 1
123 0.6510308204914619 0.2516269262807164 1
124 0.8502577051228655 0.3129067315701791 1
125 0.2516269262807164 0.8489691795085381 1
126 0.3129067315701791 0.6497422948771345 1
127 0.625 0.625 1
128 0.8125000000000001 0.9062500000000001 1
129 0.9062500000000001 0.8125000000000001 1
130 0.9375 0.9375 1
131 0.5 0.7023809523809523 0.2797205687830688
132 0.5 0.2797205687830688 0.7023809523809523
133 0.5 0.25 0.25
134 0.5 0.3199301421957672 0.8630952380952381
135 0.5 0.8630952380952381 0.3199301421957672
136 0.5 0.875 0.875
137 0.5 0.5755154102457309 0.8741865368596418
138 0.5 0.6751288525614327 0.8435466342149105
139 0.5 0.8741865368596418 0.6744845897542691
140 0.5 0.8435466342149105 0.5748711474385673
141 0.5 0.5625 0.6875
142 0.5 0.6875 0.5625
143 0.5 0.5625 0.5625
144 0.5 0.6875 0.6875
145 0.7023809523809523 0.5 0.2797205687830688
146 0.2797205687830688 0.5 0.7023809523809523
147 0.25 0.5 0.25
148 0.8630952380952381 0.5 0.3199301421957672
149 0.3199301421957672 0.5 0.8630952380952381
150 0.875 0.5 0.875
151 0.6744845897542691 0.5 0.8741865368596418
152 0.5748711474385673 0.5 0.8435466342149105
153 0.8741865368596418 0.5 0.5755154102457309
154 0.8435466342149105 0.5 0.6751288525614327
155 0.6875 0.5 0.5625
156 0.5625 0.5 0.6875
157 0.6875 0.5 0.6875
158 0.5625 0.5 0.5625
159 0.7023809523809523 0.2797205687830688 0.5
160 0.2797205687830688 0.7023809523809523 0.5
161 0.25 0.25 0.5
162 0.8630952380952381 0.3199301421957672 0.5
163 0.3199301421957672 0.8630952380952381 0.5
164 0.875 0.875 0.5
165 0.8741865368596418 0.5755154102457309 0.5
166 0.8435466342149105 0.6751288525614327 0.5
167 0.6744845897542691 0.8741865368596418 0.5
168 0.5748711474385673 0.8435466342149105 0.5
169 0.6875 0.5625 0.5
170 0.5625 0.6875 0.5
171 0.5625 0.5625 0.5
172 0.6875 0.6875 0.5
173 0.75 0.875 0.875
174 0.75 0.8741865368596418 0.5755154102457309
175 0.75 0.8435466342149105 0.6751288525614327
176 0.75 0.5755154102457309 0.8741865368596418
177 0.75 0.6751288525614327 0.8435466342149105
178 0.75 0.5625 0.5625
179 0.75 0.6875 0.5625
180 0.75 0.5625 0.6875
181 0.75 0.6875 0.6875
182 0.875 0.875 0.75
183 0.5755154102457309 0.8741865368596418 0.75
184 0.6751288525614327 0.8435466342149105 0.75
185 0.8741865368596418 0.5755154102457309 0.75
186 0.8435466342149105 0.6751288525614327 0.75
187 0.5625 0.5625 0.75
188 0.6875 0.5625 0.75
189 0.6875 0.6875 0.75
190 0.5625 0.6875 0.75
191 0.875 0.75 0.875
192 0.8741865368596418 0.75 0.5755154102457309
193 0.8435466342149105 0.75 0.6751288525614327
194 0.5755154102457309 0.75 0.8741865368596418
195 0.6751288525614327 0.75 0.8435466342149105
196 0.5625 0.75 0.5625
197 0.6875 0.75 0.5625
198 0.5625 0.75 0.6875
199 0.6875 0.75 0.6875
200 0.5625 0.625 0.5625
201 0.6875 0.625 0.5625
202 0.6875 0.625 0.6875
203 0.5625 0.625 0.6875
204 0.625 0.5625 0.6875
205 0.625 0.5625 0.5625
206 0.625 0.6875 0.5625
207 0.625 0.6875 0.6875
208 0.5625 0.5625 0.625
209 0.6875 0.5625 0.625
210 0.6875 0.6875 0.625
211 0.5625 0.6875 0.625
212 0.8829545454545454 0.875 0.8829545454545454
213 0.8829545454545454 0.8829545454545454 0.875
214 0.8513234893135053 0.8940930637414268 0.8940930637414268
215 0.2726351351351352 0.1375 0.1358108108108108
216 0.1303858278005079 0.2515388079430023 0.1303858278005079
217 0.1375 0.1375 0.25
$EndNodes
$Elements
1290
1 2 2 2 177 3 45 131
2 2 2 2 177 3 135 48
3 2 2 2 177 3 131 135
4 2 2 2 177 1 46 134
5 2 2 2 177 1 132 47
6 2 2 2 177 1 134 132
7 2 2 2 177 2 133 45
8 2 2 2 177 2 47 133
9 2 2 2 177 4 20 136
10 2 2 2 177 4 136 24
11 2 2 2 177 17 137 28
12 2 2 2 177 17 28 141
13 2 2 2 177 17 141 33
14 2 2 2 177 17 33 132
15 2 2 2 177 17 46 137
16 2 2 2 177 17 134 46
17 2 2 2 177 17 132 134
18 2 2 2 177 20 48 139
19 2 2 2 177 20 56 136
20 2 2 2 177 20 139 56
21 2 2 2 177 21 131 25
22 2 2 2 177 21 25 142
23 2 2 2 177 21 142 36
24 2 2 2 177 21 36 140
25 2 2 2 177 21 48 135
26 2 2 2 177 21 140 48
27 2 2 2 177 21 135 131
28 2 2 2 177 24 137 46
29 2 2 2 177 24 136 56
30 2 2 2 177 24 56 138
31 2 2 2 177 24 138 137
32 2 2 2 177 25 60 142
33 2 2 2 177 25 143 60
34 2 2 2 177 25 131 63
35 2 2 2 177 25 63 143
36 2 2 2 177 28 56 144
37 2 2 2 177 28 138 56
38 2 2 2 177 28 144 60
39 2 2 2 177 28 60 141
40 2 2 2 177 28 137 138
41 2 2 2 177 33 60 143
42 2 2 2 177 33 141 60
43 2 2 2 177 33 143 63
44 2 2 2 177 33 63 132
45 2 2 2 177 36 144 56
46 2 2 2 177 36 56 139
47 2 2 2 177 36 142 60
48 2 2 2 177 36 60 144
49 2 2 2 177 36 139 140
50 2 2 2 177 45 63 131
51 2 2 2 177 45 133 63
52 2 2 2 177 47 63 133
53 2 2 2 177 47 132 63
54 2 2 2 177 48 140 139
55 2 2 3 179 6 145 45
56 2 2 3 179 6 49 148
57 2 2 3 179 6 148 145
58 2 2 3 179 7 13 150
59 2 2 3 179 7 150 18
60 2 2 3 179 8 149 46
61 2 2 3 179 8 50 146
62 2 2 3 179 8 146 149
63 2 2 3 179 5 45 147
64 2 2 3 179 5 147 50
65 2 2 3 179 13 46 151
66 2 2 3 179 13 51 150
67 2 2 3 179 13 151 51
68 2 2 3 179 14 30 145
69 2 2 3 179 14 155 30
70 2 2 3 179 14 153 34
71 2 2 3 179 14 34 155
72 2 2 3 179 14 148 49
73 2 2 3 179 14 49 153
74 2 2 3 179 14 145 148
75 2 2 3 179 17 29 152
76 2 2 3 179 17 156 29
77 2 2 3 179 17 33 156
78 2 2 3 179 17 146 33
79 2 2 3 179 17 152 46
80 2 2 3 179 17 46 149
81 2 2 3 179 17 149 146
82 2 2 3 179 18 153 49
83 2 2 3 179 18 150 51
84 2 2 3 179 18 51 154
85 2 2 3 179 18 154 153
86 2 2 3 179 29 51 151
87 2 2 3 179 29 157 51
88 2 2 3 179 29 156 61
89 2 2 3 179 29 61 157
90 2 2 3 179 29 151 152
91 2 2 3 179 30 61 158
92 2 2 3 179 30 155 61
93 2 2 3 179 30 63 145
94 2 2 3 179 30 158 63
95 2 2 3 179 33 158 61
96 2 2 3 179 33 61 156
97 2 2 3 179 33 63 158
98 2 2 3 179 33 146 63
99 2 2 3 179 34 154 51
100 2 2 3 179 34 51 157
101 2 2 3 179 34 61 155
102 2 2 3 179 34 157 61
103 2 2 3 179 34 153 154
104 2 2 3 179 45 145 63
105 2 2 3 179 45 63 147
106 2 2 3 179 46 152 151
107 2 2 3 179 50 147 63
108 2 2 3 179 50 63 146
109 2 2 4 181 9 47 161
110 2 2 4 181 9 161 50
111 2 2 4 181 10 159 47
112 2 2 4 181 10 49 162
113 2 2 4 181 10 162 159
114 2 2 4 181 11 15 164
115 2 2 4 181 11 164 22
116 2 2 4 181 12 163 48
117 2 2 4 181 12 50 160
118 2 2 4 181 12 160 163
119 2 2 4 181 14 165 26
120 2 2 4 181 14 26 169
121 2 2 4 181 14 30 159
122 2 2 4 181 14 169 30
123 2 2 4 181 14 162 49
124 2 2 4 181 14 49 165
125 2 2 4 181 14 159 162
126 2 2 4 181 15 48 167
127 2 2 4 181 15 53 164
128 2 2 4 181 15 167 53
129 2 2 4 181 21 160 25
130 2 2 4 181 21 25 170
131 2 2 4 181 21 170 31
132 2 2 4 181 21 31 168
133 2 2 4 181 21 48 163
134 2 2 4 181 21 168 48
135 2 2 4 181 21 163 160
136 2 2 4 181 22 165 49
137 2 2 4 181 22 164 53
138 2 2 4 181 22 53 166
139 2 2 4 181 22 166 165
140 2 2 4 181 25 171 57
141 2 2 4 181 25 57 170
142 2 2 4 181 25 63 171
143 2 2 4 181 25 160 63
144 2 2 4 181 26 53 172
145 2 2 4 181 26 166 53
146 2 2 4 181 26 172 57
147 2 2 4 181 26 57 169
148 2 2 4 181 26 165 166
149 2 2 4 181 30 57 171
150 2 2 4 181 30 169 57
151 2 2 4 181 30 63 159
152 2 2 4 181 30 171 63
153 2 2 4 181 31 172 53
154 2 2 4 181 31 53 167
155 2 2 4 181 31 57 172
156 2 2 4 181 31 170 57
157 2 2 4 181 31 167 168
158 2 2 4 181 47 159 63
159 2 2 4 181 47 63 161
160 2 2 4 181 48 168 167
161 2 2 4 181 50 161 63
162 2 2 4 181 50 63 160
163 2 2 5 183 13 51 176
164 2 2 5 183 13 176 54
165 2 2 5 183 14 26 178
166 2 2 5 183 14 178 34
167 2 2 5 183 15 52 174
168 2 2 5 183 15 174 53
169 2 2 5 183 16 173 52
170 2 2 5 183 16 54 173
171 2 2 5 183 26 53 179
172 2 2 5 183 26 179 59
173 2 2 5 183 26 59 178
174 2 2 5 183 27 176 51
175 2 2 5 183 27 51 180
176 2 2 5 183 27 59 181
177 2 2 5 183 27 180 59
178 2 2 5 183 27 64 177
179 2 2 5 183 27 181 64
180 2 2 5 183 27 177 176
181 2 2 5 183 34 180 51
182 2 2 5 183 34 178 59
183 2 2 5 183 34 59 180
184 2 2 5 183 35 179 53
185 2 2 5 183 35 53 174
186 2 2 5 183 35 59 179
187 2 2 5 183 35 181 59
188 2 2 5 183 35 64 181
189 2 2 5 183 35 175 64
190 2 2 5 183 35 174 175
191 2 2 5 183 52 173 64
192 2 2 5 183 52 64 175
193 2 2 5 183 52 175 174
194 2 2 5 183 54 177 64
195 2 2 5 183 54 64 173
196 2 2 5 183 54 176 177
197 2 2 6 185 17 28 187
198 2 2 6 185 17 187 29
199 2 2 6 185 18 51 185
200 2 2 6 185 18 185 55
201 2 2 6 185 19 182 52
202 2 2 6 185 19 55 182
203 2 2 6 185 20 52 183
204 2 2 6 185 20 183 56
205 2 2 6 185 27 51 188
206 2 2 6 185 27 185 51
207 2 2 6 185 27 188 58
208 2 2 6 185 27 58 189
209 2 2 6 185 27 189 64
210 2 2 6 185 27 64 186
211 2 2 6 185 27 186 185
212 2 2 6 185 28 56 190
213 2 2 6 185 28 58 187
214 2 2 6 185 28 190 58
215 2 2 6 185 29 188 51
216 2 2 6 185 29 58 188
217 2 2 6 185 29 187 58
218 2 2 6 185 32 56 183
219 2 2 6 185 32 190 56
220 2 2 6 185 32 189 58
221 2 2 6 185 32 58 190
222 2 2 6 185 32 184 64
223 2 2 6 185 32 64 189
224 2 2 6 185 32 183 184
225 2 2 6 185 52 64 184
226 2 2 6 185 52 182 64
227 2 2 6 185 52 184 183
228 2 2 6 185 55 64 182
229 2 2 6 185 55 186 64
230 2 2 6 185 55 185 186
231 2 2 7 187 21 31 196
232 2 2 7 187 21 196 36
233 2 2 7 187 22 192 53
234 2 2 7 187 22 55 192
235 2 2 7 187 23 54 191
236 2 2 7 187 23 191 55
237 2 2 7 187 24 194 54
238 2 2 7 187 24 56 194
239 2 2 7 187 31 53 197
240 2 2 7 187 31 197 62
241 2 2 7 187 31 62 196
242 2 2 7 187 32 56 198
243 2 2 7 187 32 194 56
244 2 2 7 187 32 198 62
245 2 2 7 187 32 62 199
246 2 2 7 187 32 64 195
247 2 2 7 187 32 199 64
248 2 2 7 187 32 195 194
249 2 2 7 187 35 197 53
250 2 2 7 187 35 53 192
251 2 2 7 187 35 62 197
252 2 2 7 187 35 199 62
253 2 2 7 187 35 193 64
254 2 2 7 187 35 64 199
255 2 2 7 187 35 192 193
256 2 2 7 187 36 198 56
257 2 2 7 187 36 196 62
258 2 2 7 187 36 62 198
259 2 2 7 187 54 195 64
260 2 2 7 187 54 64 191
261 2 2 7 187 54 194 195
262 2 2 7 187 55 191 64
263 2 2 7 187 55 64 193
264 2 2 7 187 55 193 192
265 2 2 8 189 25 57 200
266 2 2 8 189 25 200 60
267 2 2 8 189 26 201 57
268 2 2 8 189 26 59 201
269 2 2 8 189 27 58 202
270 2 2 8 189 27 202 59
271 2 2 8 189 28 203 58
272 2 2 8 189 28 60 203
273 2 2 8 189 57 201 65
274 2 2 8 189 57 65 200
275 2 2 8 189 58 203 65
276 2 2 8 189 58 65 202
277 2 2 8 189 59 65 201
278 2 2 8 189 59 202 65
279 2 2 8 189 60 200 65
280 2 2 8 189 60 65 203
281 2 2 9 191 29 58 204
282 2 2 9 191 29 204 61
283 2 2 9 191 30 205 57
284 2 2 9 191 30 61 205
285 2 2 9 191 31 57 206
286 2 2 9 191 31 206 62
287 2 2 9 191 32 207 58
288 2 2 9 191 32 62 207
289 2 2 9 191 57 205 65
290 2 2 9 191 57 65 206
291 2 2 9 191 58 65 204
292 2 2 9 191 58 207 65
293 2 2 9 191 61 65 205
294 2 2 9 191 61 204 65
295 2 2 9 191 62 206 65
296 2 2 9 191 62 65 207
297 2 2 10 193 33 60 208
298 2 2 10 193 33 208 61
299 2 2 10 193 34 209 59
300 2 2 10 193 34 61 209
301 2 2 10 193 35 59 210
302 2 2 10 193 35 210 62
303 2 2 10 193 36 211 60
304 2 2 10 193 36 62 211
305 2 2 10 193 59 209 65
306 2 2 10 193 59 65 210
307 2 2 10 193 60 211 65
308 2 2 10 193 60 65 208
309 2 2 10 193 61 65 209
310 2 2 10 193 61 208 65
311 2 2 10 193 62 65 211
312 2 2 10 193 62 210 65
313 4 2 1 1 172 131 31 53
314 4 2 1 1 51 157 34 159
315 4 2 1 1 26 172 53 145
316 4 2 1 1 144 160 56 36
317 4 2 1 1 132 157 29 51
318 4 2 1 1 146 28 144 56
319 4 2 1 1 28 146 138 56
320 4 2 1 1 154 51 34 159
321 4 2 1 1 166 26 53 145
322 4 2 1 1 163 139 56 36
323 4 2 1 1 135 167 31 53
324 4 2 1 1 151 134 29 51
325 4 2 1 1 157 132 29 61
326 4 2 1 1 144 160 36 60
327 4 2 1 1 61 155 34 159
328 4 2 1 1 157 61 34 159
329 4 2 1 1 57 26 169 145
330 4 2 1 1 172 26 57 145
331 4 2 1 1 28 146 60 141
332 4 2 1 1 28 146 144 60
333 4 2 1 1 57 172 131 31
334 4 2 1 1 132 156 29 61
335 4 2 1 1 160 142 36 60
336 4 2 1 1 170 57 131 31
337 4 2 1 1 51 18 92 154
338 4 2 1 1 56 24 126 138
339 4 2 1 1 92 51 154 162
340 4 2 1 1 149 126 138 56
341 4 2 1 1 90 53 107 116
342 4 2 1 1 110 175 184 62
343 4 2 1 1 140 110 62 168
344 4 2 1 1 193 186 59 93
345 4 2 1 1 177 127 195 58
346 4 2 1 1 172 131 53 145
347 4 2 1 1 160 146 144 56
348 4 2 1 1 132 157 51 159
349 4 2 1 1 26 166 148 145
350 4 2 1 1 154 34 162 159
351 4 2 1 1 28 146 149 138
352 4 2 1 1 160 109 82 56
353 4 2 1 1 82 126 146 56
354 4 2 1 1 92 99 51 159
355 4 2 1 1 71 212 72 214
356 4 2 1 1 213 69 72 214
357 4 2 1 1 49 10 92 162
358 4 2 1 1 8 46 149 126
359 4 2 1 1 12 48 109 163
360 4 2 1 1 89 166 53 148
361 4 2 1 1 99 91 92 51
362 4 2 1 1 125 126 82 56
363 4 2 1 1 110 174 175 62
364 4 2 1 1 127 194 195 58
365 4 2 1 1 110 167 62 168
366 4 2 1 1 89 53 90 116
367 4 2 1 1 53 106 107 116
368 4 2 1 1 192 193 59 93
369 4 2 1 1 109 108 82 56
370 4 2 1 1 183 110 184 62
371 4 2 1 1 186 185 59 93
372 4 2 1 1 140 110 139 62
373 4 2 1 1 176 127 177 58
374 4 2 1 1 146 149 138 56
375 4 2 1 1 166 53 148 145
376 4 2 1 1 51 154 162 159
377 4 2 1 1 160 163 56 36
378 4 2 1 1 134 132 29 51
379 4 2 1 1 131 135 31 53
380 4 2 1 1 96 130 113 212
381 4 2 1 1 2 45 118 133
382 4 2 1 1 5 50 84 147
383 4 2 1 1 50 9 85 161
384 4 2 1 1 9 47 100 161
385 4 2 1 1 47 2 102 133
386 4 2 1 1 45 5 119 147
387 4 2 1 1 55 23 95 191
388 4 2 1 1 54 23 191 129
389 4 2 1 1 16 52 111 173
390 4 2 1 1 16 54 173 128
391 4 2 1 1 19 55 94 182
392 4 2 1 1 52 19 112 182
393 4 2 1 1 64 52 175 184
394 4 2 1 1 55 64 193 186
395 4 2 1 1 54 64 177 195
396 4 2 1 1 90 107 11 43
397 4 2 1 1 71 72 54 214
398 4 2 1 1 69 72 214 52
399 4 2 1 1 6 49 89 148
400 4 2 1 1 46 1 134 123
401 4 2 1 1 48 3 106 135
402 4 2 1 1 104 164 87 182
403 4 2 1 1 142 206 196 211
404 4 2 1 1 199 210 189 207
405 4 2 1 1 190 144 198 211
406 4 2 1 1 206 197 179 172
407 4 2 1 1 105 115 147 80
408 4 2 1 1 97 122 161 81
409 4 2 1 1 202 204 209 180
410 4 2 1 1 121 86 150 191
411 4 2 1 1 173 120 103 136
412 4 2 1 1 202 210 189 181
413 4 2 1 1 206 142 196 170
414 4 2 1 1 142 206 211 200
415 4 2 1 1 201 206 179 172
416 4 2 1 1 210 202 189 207
417 4 2 1 1 207 190 198 211
418 4 2 1 1 207 190 211 203
419 4 2 1 1 190 144 211 203
420 4 2 1 1 158 143 205 171
421 4 2 1 1 204 157 209 180
422 4 2 1 1 210 199 189 181
423 4 2 1 1 208 141 156 204
424 4 2 1 1 141 187 156 204
425 4 2 1 1 187 141 203 204
426 4 2 1 1 141 208 203 204
427 4 2 1 1 158 143 208 205
428 4 2 1 1 143 200 208 205
429 4 2 1 1 155 205 209 178
430 4 2 1 1 209 205 201 178
431 4 2 1 1 205 201 178 169
432 4 2 1 1 197 210 206 179
433 4 2 1 1 206 210 201 179
434 4 2 1 1 157 204 188 180
435 4 2 1 1 204 202 188 180
436 4 2 1 1 155 205 178 169
437 4 2 1 1 142 206 200 170
438 4 2 1 1 143 200 205 171
439 4 2 1 1 88 98 133 114
440 4 2 1 1 99 132 51 159
441 4 2 1 1 160 82 146 56
442 4 2 1 1 53 131 116 145
443 4 2 1 1 109 163 139 56
444 4 2 1 1 163 140 139 36
445 4 2 1 1 151 134 152 29
446 4 2 1 1 167 168 135 31
447 4 2 1 1 68 72 213 182
448 4 2 1 1 72 68 212 191
449 4 2 1 1 99 132 123 51
450 4 2 1 1 89 53 116 145
451 4 2 1 1 131 106 53 116
452 4 2 1 1 72 68 213 212
453 4 2 1 1 166 89 53 90
454 4 2 1 1 41 7 91 124
455 4 2 1 1 124 91 123 51
456 4 2 1 1 137 151 152 58
457 4 2 1 1 137 138 194 58
458 4 2 1 1 59 192 165 166
459 4 2 1 1 153 185 59 154
460 4 2 1 1 72 68 191 182
461 4 2 1 1 59 192 93 165
462 4 2 1 1 151 137 127 58
463 4 2 1 1 91 99 123 51
464 4 2 1 1 127 137 194 58
465 4 2 1 1 185 153 59 93
466 4 2 1 1 184 175 199 62
467 4 2 1 1 177 195 189 58
468 4 2 1 1 53 164 90 107
469 4 2 1 1 181 193 186 59
470 4 2 1 1 196 140 62 168
471 4 2 1 1 110 183 139 62
472 4 2 1 1 153 59 93 165
473 4 2 1 1 108 125 82 56
474 4 2 1 1 167 174 110 62
475 4 2 1 1 176 151 127 58
476 4 2 1 1 145 88 133 114
477 4 2 1 1 122 146 161 81
478 4 2 1 1 88 98 159 133
479 4 2 1 1 147 105 80 160
480 4 2 1 1 122 97 161 132
481 4 2 1 1 115 105 147 131
482 4 2 1 1 56 20 108 136
483 4 2 1 1 51 18 154 185
484 4 2 1 1 56 24 138 194
485 4 2 1 1 192 53 22 166
486 4 2 1 1 48 3 135 105
487 4 2 1 1 46 1 122 134
488 4 2 1 1 49 10 162 88
489 4 2 1 1 8 46 122 149
490 4 2 1 1 12 48 163 105
491 4 2 1 1 6 49 148 88
492 4 2 1 1 194 173 195 184
493 4 2 1 1 185 177 191 186
494 4 2 1 1 174 182 175 193
495 4 2 1 1 86 185 150 191
496 4 2 1 1 120 173 194 136
497 4 2 1 1 121 150 176 191
498 4 2 1 1 103 173 136 183
499 4 2 1 1 164 87 182 192
500 4 2 1 1 174 164 104 182
501 4 2 1 1 123 134 151 51
502 4 2 1 1 106 167 135 53
503 4 2 1 1 108 40 125 4
504 4 2 1 1 28 138 187 58
505 4 2 1 1 138 28 190 58
506 4 2 1 1 58 177 188 27
507 4 2 1 1 184 32 198 62
508 4 2 1 1 175 35 199 62
509 4 2 1 1 35 175 197 62
510 4 2 1 1 27 186 180 59
511 4 2 1 1 184 199 32 62
512 4 2 1 1 189 195 32 58
513 4 2 1 1 195 190 32 58
514 4 2 1 1 152 187 58 29
515 4 2 1 1 59 178 154 34
516 4 2 1 1 196 140 36 62
517 4 2 1 1 140 198 36 62
518 4 2 1 1 58 152 29 188
519 4 2 1 1 62 196 168 31
520 4 2 1 1 189 177 58 27
521 4 2 1 1 180 59 154 34
522 4 2 1 1 181 186 27 59
523 4 2 1 1 35 179 193 59
524 4 2 1 1 181 35 193 59
525 4 2 1 1 197 62 168 31
526 4 2 1 1 26 179 59 166
527 4 2 1 1 178 26 59 166
528 4 2 1 1 22 53 164 90
529 4 2 1 1 13 124 51 150
530 4 2 1 1 24 56 126 136
531 4 2 1 1 18 51 92 150
532 4 2 1 1 107 15 53 164
533 4 2 1 1 157 132 61 159
534 4 2 1 1 172 57 131 145
535 4 2 1 1 146 160 144 60
536 4 2 1 1 179 192 59 166
537 4 2 1 1 91 124 150 51
538 4 2 1 1 137 152 187 58
539 4 2 1 1 185 180 59 154
540 4 2 1 1 194 138 190 58
541 4 2 1 1 92 51 162 159
542 4 2 1 1 160 163 109 56
543 4 2 1 1 146 126 149 56
544 4 2 1 1 20 56 139 183
545 4 2 1 1 53 15 167 174
546 4 2 1 1 51 13 176 151
547 4 2 1 1 146 122 161 132
548 4 2 1 1 88 159 145 133
549 4 2 1 1 147 105 160 131
550 4 2 1 1 83 101 117 217
551 4 2 1 1 64 52 182 175
552 4 2 1 1 52 64 173 184
553 4 2 1 1 182 55 64 193
554 4 2 1 1 54 64 191 177
555 4 2 1 1 54 173 64 195
556 4 2 1 1 55 191 64 186
557 4 2 1 1 96 213 113 67
558 4 2 1 1 66 130 96 212
559 4 2 1 1 214 130 113 70
560 4 2 1 1 124 123 151 51
561 4 2 1 1 106 167 53 107
562 4 2 1 1 132 158 33 61
563 4 2 1 1 57 169 30 145
564 4 2 1 1 60 146 33 141
565 4 2 1 1 155 61 30 159
566 4 2 1 1 25 160 143 60
567 4 2 1 1 132 33 156 61
568 4 2 1 1 160 25 142 60
569 4 2 1 1 25 170 57 131
570 4 2 1 1 61 158 30 159
571 4 2 1 1 171 25 57 131
572 4 2 1 1 171 57 30 145
573 4 2 1 1 146 143 60 33
574 4 2 1 1 173 120 194 195
575 4 2 1 1 104 174 182 175
576 4 2 1 1 87 182 192 193
577 4 2 1 1 121 176 177 191
578 4 2 1 1 103 173 183 184
579 4 2 1 1 86 185 191 186
580 4 2 1 1 150 185 176 191
581 4 2 1 1 173 194 136 183
582 4 2 1 1 174 164 182 192
583 4 2 1 1 137 138 127 194
584 4 2 1 1 192 93 165 166
585 4 2 1 1 153 185 154 93
586 4 2 1 1 91 99 124 123
587 4 2 1 1 137 151 127 152
588 4 2 1 1 176 185 177 191
589 4 2 1 1 173 194 183 184
590 4 2 1 1 182 174 192 193
591 4 2 1 1 22 53 90 166
592 4 2 1 1 20 56 108 139
593 4 2 1 1 125 108 136 56
594 4 2 1 1 153 178 59 165
595 4 2 1 1 176 151 58 188
596 4 2 1 1 139 183 198 62
597 4 2 1 1 174 167 197 62
598 4 2 1 1 136 56 126 125
599 4 2 1 1 178 59 165 166
600 4 2 1 1 150 51 92 91
601 4 2 1 1 178 153 59 154
602 4 2 1 1 179 192 193 59
603 4 2 1 1 177 176 58 188
604 4 2 1 1 151 152 58 188
605 4 2 1 1 140 139 198 62
606 4 2 1 1 183 184 198 62
607 4 2 1 1 175 174 197 62
608 4 2 1 1 138 137 187 58
609 4 2 1 1 195 194 190 58
610 4 2 1 1 186 185 180 59
611 4 2 1 1 167 197 62 168
612 4 2 1 1 28 149 137 138
613 4 2 1 1 165 26 166 148
614 4 2 1 1 153 154 34 162
615 4 2 1 1 108 109 139 56
616 4 2 1 1 20 56 183 136
617 4 2 1 1 51 13 150 176
618 4 2 1 1 56 24 194 136
619 4 2 1 1 51 18 185 150
620 4 2 1 1 53 192 22 164
621 4 2 1 1 53 15 174 164
622 4 2 1 1 53 89 148 145
623 4 2 1 1 131 106 135 53
624 4 2 1 1 132 134 123 51
625 4 2 1 1 130 214 113 212
626 4 2 1 1 132 158 61 159
627 4 2 1 1 160 146 143 60
628 4 2 1 1 57 171 131 145
629 4 2 1 1 101 117 217 215
630 4 2 1 1 126 82 146 149
631 4 2 1 1 163 160 109 82
632 4 2 1 1 99 92 162 159
633 4 2 1 1 148 88 162 159
634 4 2 1 1 149 122 132 134
635 4 2 1 1 105 163 131 135
636 4 2 1 1 124 13 51 151
637 4 2 1 1 15 107 53 167
638 4 2 1 1 78 118 79 133
639 4 2 1 1 78 84 77 147
640 4 2 1 1 119 78 79 147
641 4 2 1 1 85 78 77 161
642 4 2 1 1 76 102 78 133
643 4 2 1 1 100 76 78 161
644 4 2 1 1 213 96 113 212
645 4 2 1 1 117 83 217 216
646 4 2 1 1 52 64 182 72
647 4 2 1 1 55 182 64 72
648 4 2 1 1 64 54 191 72
649 4 2 1 1 191 55 64 72
650 4 2 1 1 173 54 64 72
651 4 2 1 1 64 52 173 72
652 4 2 1 1 28 146 141 17
653 4 2 1 1 26 169 145 14
654 4 2 1 1 142 160 36 21
655 4 2 1 1 155 34 159 14
656 4 2 1 1 17 132 156 29
657 4 2 1 1 170 131 21 31
658 4 2 1 1 149 146 122 81
659 4 2 1 1 122 97 132 134
660 4 2 1 1 148 88 145 114
661 4 2 1 1 105 80 160 163
662 4 2 1 1 115 105 131 135
663 4 2 1 1 88 98 162 159
664 4 2 1 1 160 105 163 131
665 4 2 1 1 148 88 159 145
666 4 2 1 1 146 149 122 132
667 4 2 1 1 83 38 101 75
668 4 2 1 1 52 19 182 104
669 4 2 1 1 98 42 2 114
670 4 2 1 1 45 5 147 115
671 4 2 1 1 54 23 121 191
672 4 2 1 1 115 39 5 80
673 4 2 1 1 55 23 191 86
674 4 2 1 1 101 38 117 73
675 4 2 1 1 38 83 117 74
676 4 2 1 1 206 210 62 65
677 4 2 1 1 50 9 161 81
678 4 2 1 1 37 97 122 1
679 4 2 1 1 42 88 6 114
680 4 2 1 1 207 211 62 65
681 4 2 1 1 9 47 161 97
682 4 2 1 1 204 203 58 65
683 4 2 1 1 16 54 120 173
684 4 2 1 1 47 2 133 98
685 4 2 1 1 19 55 182 87
686 4 2 1 1 97 9 37 81
687 4 2 1 1 105 12 39 80
688 4 2 1 1 37 8 122 81
689 4 2 1 1 211 206 62 65
690 4 2 1 1 202 204 58 65
691 4 2 1 1 16 52 173 103
692 4 2 1 1 210 207 62 65
693 4 2 1 1 208 60 203 65
694 4 2 1 1 60 211 203 65
695 4 2 1 1 207 202 58 65
696 4 2 1 1 65 204 61 209
697 4 2 1 1 203 207 58 65
698 4 2 1 1 200 211 60 65
699 4 2 1 1 205 65 61 209
700 4 2 1 1 200 60 208 65
701 4 2 1 1 204 208 65 61
702 4 2 1 1 65 208 205 61
703 4 2 1 1 65 209 201 59
704 4 2 1 1 2 45 133 114
705 4 2 1 1 105 115 39 3
706 4 2 1 1 65 202 209 59
707 4 2 1 1 210 65 201 59
708 4 2 1 1 210 202 65 59
709 4 2 1 1 65 206 201 57
710 4 2 1 1 205 65 201 57
711 4 2 1 1 200 206 65 57
712 4 2 1 1 200 65 205 57
713 4 2 1 1 5 50 147 80
714 4 2 1 1 63 50 147 161
715 4 2 1 1 47 63 133 161
716 4 2 1 1 63 45 133 147
717 4 2 1 1 88 98 42 10
718 4 2 1 1 47 63 159 133
719 4 2 1 1 50 160 63 147
720 4 2 1 1 63 45 147 131
721 4 2 1 1 63 50 161 146
722 4 2 1 1 45 145 63 133
723 4 2 1 1 132 63 47 161
724 4 2 1 1 204 58 29 188
725 4 2 1 1 204 157 29 61
726 4 2 1 1 180 209 59 34
727 4 2 1 1 144 36 211 60
728 4 2 1 1 26 201 178 59
729 4 2 1 1 36 142 211 60
730 4 2 1 1 61 155 209 34
731 4 2 1 1 157 61 209 34
732 4 2 1 1 202 27 180 59
733 4 2 1 1 187 204 58 29
734 4 2 1 1 206 172 57 31
735 4 2 1 1 60 28 141 203
736 4 2 1 1 36 198 211 62
737 4 2 1 1 196 36 211 62
738 4 2 1 1 199 207 32 62
739 4 2 1 1 32 207 198 62
740 4 2 1 1 35 210 199 62
741 4 2 1 1 35 197 210 62
742 4 2 1 1 156 204 29 61
743 4 2 1 1 144 28 60 203
744 4 2 1 1 207 189 32 58
745 4 2 1 1 28 187 203 58
746 4 2 1 1 190 28 203 58
747 4 2 1 1 190 207 32 58
748 4 2 1 1 170 206 57 31
749 4 2 1 1 26 201 172 57
750 4 2 1 1 202 181 27 59
751 4 2 1 1 202 189 58 27
752 4 2 1 1 202 58 188 27
753 4 2 1 1 201 26 179 59
754 4 2 1 1 210 35 181 59
755 4 2 1 1 35 210 179 59
756 4 2 1 1 209 178 59 34
757 4 2 1 1 26 201 57 169
758 4 2 1 1 206 196 62 31
759 4 2 1 1 197 206 62 31
760 4 2 1 1 12 163 109 82
761 4 2 1 1 92 99 162 10
762 4 2 1 1 82 126 8 149
763 4 2 1 1 63 132 47 159
764 4 2 1 1 160 50 63 146
765 4 2 1 1 145 45 63 131
766 4 2 1 1 6 145 45 114
767 4 2 1 1 12 160 82 50
768 4 2 1 1 12 80 160 50
769 4 2 1 1 82 146 8 50
770 4 2 1 1 8 146 81 50
771 4 2 1 1 97 132 1 47
772 4 2 1 1 116 6 145 45
773 4 2 1 1 98 159 47 10
774 4 2 1 1 132 99 1 47
775 4 2 1 1 159 99 47 10
776 4 2 1 1 131 115 3 45
777 4 2 1 1 131 3 116 45
778 4 2 1 1 52 110 175 184
779 4 2 1 1 186 193 55 93
780 4 2 1 1 127 177 195 54
781 4 2 1 1 90 107 43 116
782 4 2 1 1 8 149 122 81
783 4 2 1 1 105 12 80 163
784 4 2 1 1 6 88 148 114
785 4 2 1 1 115 105 135 3
786 4 2 1 1 98 88 162 10
787 4 2 1 1 122 97 134 1
788 4 2 1 1 117 217 215 216
789 4 2 1 1 214 72 54 173
790 4 2 1 1 72 214 52 173
791 4 2 1 1 163 140 36 21
792 4 2 1 1 168 21 135 31
793 4 2 1 1 152 134 17 29
794 4 2 1 1 173 103 52 184
795 4 2 1 1 104 182 52 175
796 4 2 1 1 121 177 54 191
797 4 2 1 1 173 120 195 54
798 4 2 1 1 191 86 186 55
799 4 2 1 1 87 182 193 55
800 4 2 1 1 212 54 72 191
801 4 2 1 1 213 52 182 72
802 4 2 1 1 40 12 108 82
803 4 2 1 1 125 40 82 8
804 4 2 1 1 43 106 3 116
805 4 2 1 1 41 99 1 123
806 4 2 1 1 43 89 116 6
807 4 2 1 1 41 99 91 10
808 4 2 1 1 118 215 78 79
809 4 2 1 1 78 79 45 133
810 4 2 1 1 78 77 161 50
811 4 2 1 1 78 79 147 45
812 4 2 1 1 78 76 133 47
813 4 2 1 1 78 147 161 63
814 4 2 1 1 78 147 63 133
815 4 2 1 1 77 78 147 50
816 4 2 1 1 76 78 161 47
817 4 2 1 1 161 78 63 133
818 4 2 1 1 76 102 215 78
819 4 2 1 1 165 89 166 22
820 4 2 1 1 215 118 78 133
821 4 2 1 1 117 101 73 215
822 4 2 1 1 97 37 122 81
823 4 2 1 1 147 115 5 80
824 4 2 1 1 38 83 101 117
825 4 2 1 1 115 105 39 80
826 4 2 1 1 9 97 161 81
827 4 2 1 1 211 144 60 203
828 4 2 1 1 204 157 61 209
829 4 2 1 1 143 200 60 208
830 4 2 1 1 204 202 58 188
831 4 2 1 1 98 88 42 114
832 4 2 1 1 86 121 23 191
833 4 2 1 1 155 205 61 209
834 4 2 1 1 206 210 65 201
835 4 2 1 1 208 60 141 203
836 4 2 1 1 98 2 133 114
837 4 2 1 1 205 65 209 201
838 4 2 1 1 208 200 65 205
839 4 2 1 1 202 204 65 209
840 4 2 1 1 201 205 57 169
841 4 2 1 1 211 142 200 60
842 4 2 1 1 202 210 181 59
843 4 2 1 1 201 206 172 57
844 4 2 1 1 202 189 207 58
845 4 2 1 1 203 187 204 58
846 4 2 1 1 211 207 203 65
847 4 2 1 1 200 205 171 57
848 4 2 1 1 210 202 207 65
849 4 2 1 1 120 173 103 16
850 4 2 1 1 206 196 211 62
851 4 2 1 1 130 96 113 44
852 4 2 1 1 87 104 182 19
853 4 2 1 1 207 190 203 58
854 4 2 1 1 198 207 211 62
855 4 2 1 1 156 208 204 61
856 4 2 1 1 206 211 200 65
857 4 2 1 1 199 210 207 62
858 4 2 1 1 210 197 206 62
859 4 2 1 1 208 158 205 61
860 4 2 1 1 208 203 204 65
861 4 2 1 1 201 209 178 59
862 4 2 1 1 209 202 180 59
863 4 2 1 1 210 201 179 59
864 4 2 1 1 206 200 170 57
865 4 2 1 1 102 215 78 133
866 4 2 1 1 126 125 24 136
867 4 2 1 1 26 178 165 166
868 4 2 1 1 178 153 154 34
869 4 2 1 1 35 179 192 193
870 4 2 1 1 186 185 27 180
871 4 2 1 1 152 151 29 188
872 4 2 1 1 177 176 188 27
873 4 2 1 1 139 140 198 36
874 4 2 1 1 194 195 190 32
875 4 2 1 1 174 35 175 197
876 4 2 1 1 183 184 32 198
877 4 2 1 1 137 28 138 187
878 4 2 1 1 167 197 168 31
879 4 2 1 1 91 92 150 18
880 4 2 1 1 89 116 148 145
881 4 2 1 1 106 131 135 116
882 4 2 1 1 132 134 99 123
883 4 2 1 1 15 174 104 52
884 4 2 1 1 185 86 18 55
885 4 2 1 1 121 176 13 54
886 4 2 1 1 13 176 127 54
887 4 2 1 1 24 127 194 54
888 4 2 1 1 120 24 194 54
889 4 2 1 1 183 20 52 110
890 4 2 1 1 15 174 52 110
891 4 2 1 1 20 103 183 52
892 4 2 1 1 18 185 55 93
893 4 2 1 1 192 87 55 22
894 4 2 1 1 192 55 93 22
895 4 2 1 1 48 21 168 140
896 4 2 1 1 113 130 44 70
897 4 2 1 1 52 183 110 184
898 4 2 1 1 91 99 92 10
899 4 2 1 1 108 12 109 82
900 4 2 1 1 103 183 52 184
901 4 2 1 1 127 176 177 54
902 4 2 1 1 86 185 186 55
903 4 2 1 1 120 194 195 54
904 4 2 1 1 174 52 110 175
905 4 2 1 1 89 90 43 116
906 4 2 1 1 192 87 193 55
907 4 2 1 1 126 125 82 8
908 4 2 1 1 99 41 124 123
909 4 2 1 1 193 192 55 93
910 4 2 1 1 176 121 177 54
911 4 2 1 1 194 127 195 54
912 4 2 1 1 174 104 52 175
913 4 2 1 1 185 186 55 93
914 4 2 1 1 107 106 43 116
915 4 2 1 1 173 214 128 54
916 4 2 1 1 173 111 214 52
917 4 2 1 1 217 76 215 78
918 4 2 1 1 80 12 160 163
919 4 2 1 1 116 6 148 145
920 4 2 1 1 8 146 149 81
921 4 2 1 1 12 160 163 82
922 4 2 1 1 98 162 159 10
923 4 2 1 1 97 132 134 1
924 4 2 1 1 135 131 3 116
925 4 2 1 1 162 99 159 10
926 4 2 1 1 6 148 145 114
927 4 2 1 1 146 82 8 149
928 4 2 1 1 131 115 135 3
929 4 2 1 1 134 132 99 1
930 4 2 1 1 35 174 175 193
931 4 2 1 1 195 194 184 32
932 4 2 1 1 185 177 186 27
933 4 2 1 1 100 76 161 47
934 4 2 1 1 84 77 147 50
935 4 2 1 1 76 102 133 47
936 4 2 1 1 79 119 147 45
937 4 2 1 1 77 85 161 50
938 4 2 1 1 79 118 45 133
939 4 2 1 1 217 100 76 78
940 4 2 1 1 217 85 78 77
941 4 2 1 1 213 94 68 182
942 4 2 1 1 212 71 191 129
943 4 2 1 1 212 95 191 68
944 4 2 1 1 69 213 182 112
945 4 2 1 1 215 78 79 216
946 4 2 1 1 161 146 132 33
947 4 2 1 1 25 147 160 131
948 4 2 1 1 159 30 145 133
949 4 2 1 1 161 78 133 47
950 4 2 1 1 147 78 161 50
951 4 2 1 1 147 78 45 133
952 4 2 1 1 217 100 78 161
953 4 2 1 1 85 217 78 161
954 4 2 1 1 28 144 190 203
955 4 2 1 1 207 190 32 198
956 4 2 1 1 26 201 179 172
957 4 2 1 1 206 197 172 31
958 4 2 1 1 188 202 27 180
959 4 2 1 1 142 196 36 211
960 4 2 1 1 187 156 204 29
961 4 2 1 1 141 28 187 203
962 4 2 1 1 189 199 207 32
963 4 2 1 1 196 206 170 31
964 4 2 1 1 197 35 210 179
965 4 2 1 1 198 144 36 211
966 4 2 1 1 157 204 29 188
967 4 2 1 1 157 209 180 34
968 4 2 1 1 209 155 178 34
969 4 2 1 1 210 35 199 181
970 4 2 1 1 201 26 178 169
971 4 2 1 1 189 202 181 27
972 4 2 1 1 78 217 77 216
973 4 2 1 1 153 154 18 93
974 4 2 1 1 93 165 166 22
975 4 2 1 1 138 137 127 24
976 4 2 1 1 106 135 3 116
977 4 2 1 1 99 134 1 123
978 4 2 1 1 89 116 6 148
979 4 2 1 1 46 152 17 137
980 4 2 1 1 84 78 77 216
981 4 2 1 1 78 119 79 216
982 4 2 1 1 20 139 108 109
983 4 2 1 1 78 119 216 147
984 4 2 1 1 84 78 216 147
985 4 2 1 1 83 101 217 75
986 4 2 1 1 214 213 113 212
987 4 2 1 1 130 66 96 44
988 4 2 1 1 96 113 44 67
989 4 2 1 1 45 145 133 114
990 4 2 1 1 147 115 131 45
991 4 2 1 1 98 159 133 47
992 4 2 1 1 97 161 132 47
993 4 2 1 1 80 147 160 50
994 4 2 1 1 146 161 81 50
995 4 2 1 1 99 41 91 124
996 4 2 1 1 213 52 69 182
997 4 2 1 1 212 54 191 71
998 4 2 1 1 153 49 14 165
999 4 2 1 1 166 89 90 22
1000 4 2 1 1 165 26 148 14
1001 4 2 1 1 34 153 162 14
1002 4 2 1 1 149 28 137 17
1003 4 2 1 1 68 191 182 55
1004 4 2 1 1 154 185 18 93
1005 4 2 1 1 127 138 24 194
1006 4 2 1 1 192 93 166 22
1007 4 2 1 1 117 83 216 74
1008 4 2 1 1 194 183 184 32
1009 4 2 1 1 185 176 177 27
1010 4 2 1 1 174 35 192 193
1011 4 2 1 1 128 214 71 54
1012 4 2 1 1 214 111 69 52
1013 4 2 1 1 89 165 166 148
1014 4 2 1 1 149 126 137 138
1015 4 2 1 1 153 92 154 162
1016 4 2 1 1 102 118 215 133
1017 4 2 1 1 158 30 159 63
1018 4 2 1 1 160 25 143 63
1019 4 2 1 1 171 25 131 63
1020 4 2 1 1 146 143 33 63
1021 4 2 1 1 30 171 145 63
1022 4 2 1 1 158 132 33 63
1023 4 2 1 1 131 116 145 45
1024 4 2 1 1 82 160 146 50
1025 4 2 1 1 99 132 159 47
1026 4 2 1 1 215 217 78 216
1027 4 2 1 1 71 54 191 129
1028 4 2 1 1 182 52 69 112
1029 4 2 1 1 94 68 182 55
1030 4 2 1 1 95 191 68 55
1031 4 2 1 1 66 130 212 71
1032 4 2 1 1 96 66 212 68
1033 4 2 1 1 213 113 67 69
1034 4 2 1 1 213 96 68 67
1035 4 2 1 1 217 85 100 161
1036 4 2 1 1 126 137 138 24
1037 4 2 1 1 92 153 154 18
1038 4 2 1 1 171 131 145 63
1039 4 2 1 1 132 158 159 63
1040 4 2 1 1 146 160 143 63
1041 4 2 1 1 191 72 182 55
1042 4 2 1 1 119 84 216 147
1043 4 2 1 1 25 147 131 63
1044 4 2 1 1 161 146 33 63
1045 4 2 1 1 132 161 33 63
1046 4 2 1 1 147 25 160 63
1047 4 2 1 1 30 159 63 133
1048 4 2 1 1 145 30 63 133
1049 4 2 1 1 129 66 95 212
1050 4 2 1 1 112 213 94 67
1051 4 2 1 1 113 214 70 69
1052 4 2 1 1 214 130 70 71
1053 4 2 1 1 174 164 15 104
1054 4 2 1 1 185 86 150 18
1055 4 2 1 1 103 136 20 183
1056 4 2 1 1 24 120 194 136
1057 4 2 1 1 150 121 176 13
1058 4 2 1 1 164 87 192 22
1059 4 2 1 1 101 76 73 215
1060 4 2 1 1 73 117 215 79
1061 4 2 1 1 101 217 75 76
1062 4 2 1 1 217 83 75 77
1063 4 2 1 1 131 163 21 135
1064 4 2 1 1 162 148 159 14
1065 4 2 1 1 132 149 134 17
1066 4 2 1 1 109 163 140 139
1067 4 2 1 1 213 112 94 182
1068 4 2 1 1 95 129 212 191
1069 4 2 1 1 73 102 118 215
1070 4 2 1 1 83 77 216 74
1071 4 2 1 1 79 117 216 74
1072 4 2 1 1 132 33 17 156
1073 4 2 1 1 146 33 141 17
1074 4 2 1 1 30 155 159 14
1075 4 2 1 1 25 170 131 21
1076 4 2 1 1 25 160 142 21
1077 4 2 1 1 169 30 145 14
1078 4 2 1 1 111 173 214 128
1079 4 2 1 1 15 167 106 107
1080 4 2 1 1 123 124 151 13
1081 4 2 1 1 134 46 151 152
1082 4 2 1 1 167 168 48 135
1083 4 2 1 1 30 159 145 14
1084 4 2 1 1 146 132 33 17
1085 4 2 1 1 160 25 131 21
1086 4 2 1 1 75 217 85 100
1087 4 2 1 1 214 111 128 70
1088 4 2 1 1 84 119 216 74
1089 4 2 1 1 146 149 132 17
1090 4 2 1 1 163 160 131 21
1091 4 2 1 1 159 148 145 14
1092 4 2 1 1 146 28 149 17
1093 4 2 1 1 160 163 36 21
1094 4 2 1 1 21 131 135 31
1095 4 2 1 1 34 162 159 14
1096 4 2 1 1 134 132 17 29
1097 4 2 1 1 148 26 145 14
1098 4 2 1 1 40 108 125 82
1099 4 2 1 1 25 200 171 57
1100 4 2 1 1 142 25 200 60
1101 4 2 1 1 200 25 143 60
1102 4 2 1 1 33 208 156 61
1103 4 2 1 1 158 208 33 61
1104 4 2 1 1 60 143 208 33
1105 4 2 1 1 208 60 33 141
1106 4 2 1 1 205 155 61 30
1107 4 2 1 1 205 57 169 30
1108 4 2 1 1 200 25 170 57
1109 4 2 1 1 205 171 57 30
1110 4 2 1 1 158 205 61 30
1111 4 2 1 1 173 64 195 184
1112 4 2 1 1 182 64 175 193
1113 4 2 1 1 191 64 186 177
1114 4 2 1 1 119 84 147 5
1115 4 2 1 1 85 9 100 161
1116 4 2 1 1 118 102 2 133
1117 4 2 1 1 112 94 182 19
1118 4 2 1 1 23 129 95 191
1119 4 2 1 1 173 111 16 128
1120 4 2 1 1 163 21 48 140
1121 4 2 1 1 152 46 17 134
1122 4 2 1 1 48 21 135 168
1123 4 2 1 1 176 151 13 127
1124 4 2 1 1 174 15 167 110
1125 4 2 1 1 183 20 110 139
1126 4 2 1 1 163 105 48 135
1127 4 2 1 1 149 46 122 134
1128 4 2 1 1 148 88 49 162
1129 4 2 1 1 66 95 212 68
1130 4 2 1 1 94 213 68 67
1131 4 2 1 1 112 213 67 69
1132 4 2 1 1 129 66 212 71
1133 4 2 1 1 130 214 212 71
1134 4 2 1 1 213 214 113 69
1135 4 2 1 1 24 125 4 136
1136 4 2 1 1 151 29 188 51
1137 4 2 1 1 137 28 187 17
1138 4 2 1 1 185 27 180 51
1139 4 2 1 1 174 35 197 53
1140 4 2 1 1 108 4 136 20
1141 4 2 1 1 176 188 27 51
1142 4 2 1 1 7 91 150 18
1143 4 2 1 1 167 197 31 53
1144 4 2 1 1 56 183 32 198
1145 4 2 1 1 56 194 190 32
1146 4 2 1 1 56 139 198 36
1147 4 2 1 1 179 35 192 53
1148 4 2 1 1 178 26 165 14
1149 4 2 1 1 178 153 34 14
1150 4 2 1 1 49 153 14 162
1151 4 2 1 1 17 46 137 149
1152 4 2 1 1 14 49 148 165
1153 4 2 1 1 4 120 103 16
1154 4 2 1 1 7 86 121 23
1155 4 2 1 1 87 104 19 11
1156 4 2 1 1 101 217 76 215
1157 4 2 1 1 183 194 56 32
1158 4 2 1 1 185 176 27 51
1159 4 2 1 1 35 174 192 53
1160 4 2 1 1 194 136 183 56
1161 4 2 1 1 185 150 176 51
1162 4 2 1 1 174 164 192 53
1163 4 2 1 1 117 215 79 216
1164 4 2 1 1 155 178 34 14
1165 4 2 1 1 187 17 156 29
1166 4 2 1 1 28 141 187 17
1167 4 2 1 1 7 121 150 13
1168 4 2 1 1 4 103 136 20
1169 4 2 1 1 190 56 32 198
1170 4 2 1 1 26 178 169 14
1171 4 2 1 1 197 172 31 53
1172 4 2 1 1 35 199 181 64
1173 4 2 1 1 28 144 56 190
1174 4 2 1 1 27 188 180 51
1175 4 2 1 1 189 181 64 27
1176 4 2 1 1 144 56 198 36
1177 4 2 1 1 157 180 51 34
1178 4 2 1 1 189 199 32 64
1179 4 2 1 1 29 157 188 51
1180 4 2 1 1 86 7 150 18
1181 4 2 1 1 196 142 36 21
1182 4 2 1 1 196 170 21 31
1183 4 2 1 1 179 26 172 53
1184 4 2 1 1 197 35 179 53
1185 4 2 1 1 164 15 104 11
1186 4 2 1 1 164 87 22 11
1187 4 2 1 1 120 24 4 136
1188 4 2 1 1 213 96 212 68
1189 4 2 1 1 165 89 22 49
1190 4 2 1 1 167 15 106 48
1191 4 2 1 1 46 123 151 13
1192 4 2 1 1 128 214 70 71
1193 4 2 1 1 214 111 70 69
1194 4 2 1 1 33 208 141 156
1195 4 2 1 1 25 142 200 170
1196 4 2 1 1 25 200 143 171
1197 4 2 1 1 143 158 208 33
1198 4 2 1 1 155 205 169 30
1199 4 2 1 1 205 158 171 30
1200 4 2 1 1 18 153 93 49
1201 4 2 1 1 15 167 110 48
1202 4 2 1 1 151 46 13 127
1203 4 2 1 1 93 165 22 49
1204 4 2 1 1 137 46 127 24
1205 4 2 1 1 20 110 139 48
1206 4 2 1 1 140 110 168 48
1207 4 2 1 1 73 76 102 215
1208 4 2 1 1 118 73 215 79
1209 4 2 1 1 217 83 77 216
1210 4 2 1 1 75 217 100 76
1211 4 2 1 1 217 75 85 77
1212 4 2 1 1 140 109 139 48
1213 4 2 1 1 119 79 216 74
1214 4 2 1 1 77 84 216 74
1215 4 2 1 1 110 140 139 48
1216 4 2 1 1 110 167 168 48
1217 4 2 1 1 151 46 127 152
1218 4 2 1 1 168 196 21 31
1219 4 2 1 1 177 189 64 27
1220 4 2 1 1 138 28 56 190
1221 4 2 1 1 195 189 32 64
1222 4 2 1 1 140 196 36 21
1223 4 2 1 1 199 184 32 64
1224 4 2 1 1 35 175 199 64
1225 4 2 1 1 187 152 17 29
1226 4 2 1 1 26 179 166 53
1227 4 2 1 1 51 180 154 34
1228 4 2 1 1 35 181 193 64
1229 4 2 1 1 64 181 186 27
1230 4 2 1 1 124 7 150 13
1231 4 2 1 1 15 164 107 11
1232 4 2 1 1 90 164 22 11
1233 4 2 1 1 86 7 121 150
1234 4 2 1 1 120 4 103 136
1235 4 2 1 1 144 56 190 198
1236 4 2 1 1 199 189 181 64
1237 4 2 1 1 188 157 180 51
1238 4 2 1 1 141 187 17 156
1239 4 2 1 1 197 179 172 53
1240 4 2 1 1 142 196 170 21
1241 4 2 1 1 164 104 87 11
1242 4 2 1 1 178 155 169 14
1243 4 2 1 1 180 185 51 154
1244 4 2 1 1 179 192 166 53
1245 4 2 1 1 7 91 124 150
1246 4 2 1 1 194 138 56 190
1247 4 2 1 1 152 137 187 17
1248 4 2 1 1 134 46 123 151
1249 4 2 1 1 106 167 48 135
1250 4 2 1 1 125 108 4 136
1251 4 2 1 1 167 174 197 53
1252 4 2 1 1 139 183 56 198
1253 4 2 1 1 176 151 188 51
1254 4 2 1 1 153 178 165 14
1255 4 2 1 1 126 46 137 24
1256 4 2 1 1 92 153 18 49
1257 4 2 1 1 109 20 139 48
1258 4 2 1 1 9 75 85 100
1259 4 2 1 1 84 119 74 5
1260 4 2 1 1 102 73 118 2
1261 4 2 1 1 46 137 127 152
1262 4 2 1 1 214 213 212 72
1263 4 2 1 1 89 165 148 49
1264 4 2 1 1 177 64 186 27
1265 4 2 1 1 175 35 193 64
1266 4 2 1 1 184 195 32 64
1267 4 2 1 1 181 193 64 186
1268 4 2 1 1 195 177 189 64
1269 4 2 1 1 175 184 199 64
1270 4 2 1 1 196 140 168 21
1271 4 2 1 1 164 90 107 11
1272 4 2 1 1 163 109 140 48
1273 4 2 1 1 111 16 128 70
1274 4 2 1 1 17 46 149 134
1275 4 2 1 1 14 49 162 148
1276 4 2 1 1 21 163 48 135
1277 4 2 1 1 66 23 129 95
1278 4 2 1 1 94 112 67 19
1279 4 2 1 1 25 142 170 21
1280 4 2 1 1 169 155 30 14
1281 4 2 1 1 33 141 17 156
1282 4 2 1 1 126 46 149 137
1283 4 2 1 1 92 153 49 162
1284 4 2 1 1 93 153 165 49
1285 4 2 1 1 158 143 171 63
1286 4 2 1 1 143 158 33 63
1287 4 2 1 1 143 25 171 63
1288 4 2 1 1 158 171 30 63
1289 4 2 1 1 212 54 71 72
1290 4 2 1 1 213 52 72 69
$EndElements
