$MeshFormat
2.2 0 8
$EndMeshFormat
$PhysicalNames
10
2 2 "FRACTURE_0"
2 3 "FRACTURE_1"
2 4 "FRACTURE_2"
2 5 "FRACTURE_3"
2 6 "FRACTURE_4"
2 7 "FRACTURE_5"
2 8 "FRACTURE_6"
2 9 "FRACTURE_7"
2 10 "FRACTURE_8"
3 1 "DOMAIN"
$EndPhysicalNames
$Nodes
197
1 0.5 0 1
2 0.5 0 0
3 0.5 1 0
4 0.5 1 1
5 0 0.5 0
6 1 0.5 0
7 1 0.5 1
8 0 0.5 1
9 0 0 0.5
10 1 0 0.5
11 1 1 0.5
12 0 1 0.5
13 0.75 0.5 1
14 0.75 0.5 0.5
15 0.75 1 0.5
16 0.75 1 1
17 0.5 0.5 0.75
18 1 0.5 0.75
19 1 1 0.75
20 0.5 1 0.75
21 0.5 0.75 0.5
22 1 0.75 0.5
23 1 0.75 1
24 0.5 0.75 1
25 0.5 0.625 0.5
26 0.75 0.625 0.5
27 0.75 0.625 0.75
28 0.5 0.625 0.75
29 0.625 0.5 0.75
30 0.625 0.5 0.5
31 0.625 0.75 0.5
32 0.625 0.75 0.75
33 0.5 0.5 0.625
34 0.75 0.5 0.625
35 0.75 0.75 0.625
36 0.5 0.75 0.625
37 0 0 1
38 0 0 0
39 0 1 0
40 0 1 1
41 1 0 1
42 1 0 0
43 1 1 0
44 1 1 1
45 0.5 0.5 0
46 0.5 0.5 1
47 0.5 0 0.5
48 0.5 1 0.5
49 1 0.5 0.5
50 0 0.5 0.5
51 0.75 0.5 0.75
52 0.75 1 0.75
53 0.75 0.75 0.5
54 0.75 0.75 1
55 1 0.75 0.75
56 0.5 0.75 0.75
57 0.625 0.625 0.5
58 0.625 0.625 0.75
59 0.75 0.625 0.625
60 0.5 0.625 0.625
61 0.625 0.5 0.625
62 0.625 0.75 0.625
63 0.5 0.5 0.5
64 0.75 0.75 0.75
65 0.625 0.625 0.625
66 1 0.875 1
67 1 1 0.875
68 1 0.875 0.875
69 0.875 1 0.875
70 0.875 1 1
71 0.875 0.875 1
72 0.875 0.875 0.875
73 0.25 0 0
74 0 0.25 0
75 0 0 0.25
76 0.25 0 0.25
77 0 0.25 0.25
78 0.25 0.25 0.25
79 0.25 0.25 0
80 0 0.75 0.25
81 0 0.25 0.75
82 0 0.75 0.75
83 0 0.125 0.125
84 0 0.375 0.1875
85 0 0.1875 0.375
86 1 0.625 0.875
87 1 0.875 0.625
88 1 0.25 0.25
89 1 0.625 0.625
90 1 0.75 0.2448979591836735
91 1 0.2448979591836735 0.75
92 1 0.9062500000000001 0.8125000000000001
93 1 0.8125000000000001 0.9062500000000001
94 1 0.9375 0.9375
95 0.25 0 0.75
96 0.75 0 0.25
97 0.75 0 0.75
98 0.1875 0 0.375
99 0.125 0 0.125
100 0.375 0 0.1875
101 0.625 1 0.875
102 0.875 1 0.625
103 0.25 1 0.25
104 0.625 1 0.625
105 0.75 1 0.2448979591836735
106 0.2448979591836735 1 0.75
107 0.8125000000000001 1 0.9062500000000001
108 0.9062500000000001 1 0.8125000000000001
109 0.9375 1 0.9375
110 0.75 0.25 0
111 0.25 0.75 0
112 0.75 0.75 0
113 0.125 0.125 0
114 0.375 0.1875 0
115 0.1875 0.375 0
116 0.625 0.875 1
117 0.875 0.625 1
118 0.25 0.25 1
119 0.625 0.625 1
120 0.75 0.2448979591836735 1
121 0.2448979591836735 0.75 1
122 0.8125000000000001 0.9062500000000001 1
123 0.9062500000000001 0.8125000000000001 1
124 0.9375 0.9375 1
125 0.5 0.6875 0.21875
126 0.5 0.21875 0.6875
127 0.5 0.25 0.25
128 0.5 0.875 0.875
129 0.5 0.3864752533666528 0.6940077051228655
130 0.5 0.6940077051228655 0.3864752533666528
131 0.5 0.8775510204081634 0.625
132 0.5 0.625 0.8775510204081634
133 0.5 0.5625 0.6875
134 0.5 0.6875 0.5625
135 0.5 0.5625 0.5625
136 0.5 0.6875 0.6875
137 0.6875 0.5 0.21875
138 0.21875 0.5 0.6875
139 0.25 0.5 0.25
140 0.875 0.5 0.875
141 0.6940077051228655 0.5 0.3864752533666528
142 0.3864752533666528 0.5 0.6940077051228655
143 0.625 0.5 0.8775510204081634
144 0.8775510204081634 0.5 0.625
145 0.6875 0.5 0.5625
146 0.5625 0.5 0.6875
147 0.6875 0.5 0.6875
148 0.5625 0.5 0.5625
149 0.6875 0.21875 0.5
150 0.21875 0.6875 0.5
151 0.25 0.25 0.5
152 0.875 0.875 0.5
153 0.6940077051228655 0.3864752533666528 0.5
154 0.3864752533666528 0.6940077051228655 0.5
155 0.625 0.8775510204081634 0.5
156 0.8775510204081634 0.625 0.5
157 0.6875 0.5625 0.5
158 0.5625 0.6875 0.5
159 0.5625 0.5625 0.5
160 0.6875 0.6875 0.5
161 0.75 0.875 0.875
162 0.75 0.625 0.8775510204081634
163 0.75 0.8775510204081634 0.625
164 0.75 0.5625 0.5625
165 0.75 0.6875 0.5625
166 0.75 0.5625 0.6875
167 0.75 0.6875 0.6875
168 0.875 0.8749999999999997 0.75
169 0.625 0.877551020408163 0.75
170 0.5625 0.5624999999999999 0.75
171 0.6874999999999999 0.5624999999999999 0.75
172 0.6875 0.6874999999999999 0.75
173 0.5625 0.6874999999999999 0.75
174 0.875 0.75 0.8749999999999997
175 0.625 0.75 0.877551020408163
176 0.5625 0.75 0.5624999999999999
177 0.6875 0.75 0.5624999999999999
178 0.5625 0.75 0.6874999999999999
179 0.6875 0.75 0.6874999999999999
180 0.5625 0.625 0.5625
181 0.6875 0.625 0.5625
182 0.6875 0.625 0.6875
183 0.5625 0.625 0.6875
184 0.625 0.5625 0.6875
185 0.625 0.5625 0.5625
186 0.625 0.6875 0.5625
187 0.625 0.6875 0.6875
188 0.5625 0.5625 0.625
189 0.6875 0.5625 0.625
190 0.6875 0.6875 0.625
191 0.5625 0.6875 0.625
192 0.9375 0.875 0.9375
193 0.9375 0.9375 0.875
194 0.875 0.9375 0.9375
195 0.25 0.125 0.125
196 0.125 0.25 0.125
197 0.125 0.125 0.25
$EndNodes
$Elements
1127
1 2 2 2 177 1 46 126
2 2 2 2 177 47 1 126
3 2 2 2 177 45 2 127
4 2 2 2 177 2 47 127
5 2 2 2 177 3 45 125
6 2 2 2 177 48 3 125
7 2 2 2 177 4 20 128
8 2 2 2 177 24 4 128
9 2 2 2 177 28 17 132
10 2 2 2 177 17 28 133
11 2 2 2 177 17 33 129
12 2 2 2 177 33 17 133
13 2 2 2 177 46 17 129
14 2 2 2 177 17 46 132
15 2 2 2 177 20 48 131
16 2 2 2 177 20 56 128
17 2 2 2 177 56 20 131
18 2 2 2 177 25 21 130
19 2 2 2 177 21 25 134
20 2 2 2 177 21 36 131
21 2 2 2 177 36 21 134
22 2 2 2 177 21 48 130
23 2 2 2 177 48 21 131
24 2 2 2 177 46 24 132
25 2 2 2 177 56 24 128
26 2 2 2 177 24 56 132
27 2 2 2 177 25 60 134
28 2 2 2 177 60 25 135
29 2 2 2 177 63 25 130
30 2 2 2 177 25 63 135
31 2 2 2 177 56 28 132
32 2 2 2 177 28 56 136
33 2 2 2 177 28 60 133
34 2 2 2 177 60 28 136
35 2 2 2 177 60 33 133
36 2 2 2 177 33 60 135
37 2 2 2 177 33 63 129
38 2 2 2 177 63 33 135
39 2 2 2 177 36 56 131
40 2 2 2 177 56 36 136
41 2 2 2 177 60 36 134
42 2 2 2 177 36 60 136
43 2 2 2 177 45 63 125
44 2 2 2 177 63 45 127
45 2 2 2 177 126 46 129
46 2 2 2 177 63 47 126
47 2 2 2 177 47 63 127
48 2 2 2 177 48 125 130
49 2 2 2 177 125 63 130
50 2 2 2 177 63 126 129
51 2 2 3 179 5 45 139
52 2 2 3 179 50 5 139
53 2 2 3 179 45 6 137
54 2 2 3 179 6 49 137
55 2 2 3 179 7 13 140
56 2 2 3 179 18 7 140
57 2 2 3 179 46 8 138
58 2 2 3 179 8 50 138
59 2 2 3 179 13 46 143
60 2 2 3 179 13 51 140
61 2 2 3 179 51 13 143
62 2 2 3 179 14 30 141
63 2 2 3 179 30 14 145
64 2 2 3 179 34 14 144
65 2 2 3 179 14 34 145
66 2 2 3 179 49 14 141
67 2 2 3 179 14 49 144
68 2 2 3 179 17 29 143
69 2 2 3 179 29 17 146
70 2 2 3 179 33 17 142
71 2 2 3 179 17 33 146
72 2 2 3 179 17 46 142
73 2 2 3 179 46 17 143
74 2 2 3 179 49 18 144
75 2 2 3 179 51 18 140
76 2 2 3 179 18 51 144
77 2 2 3 179 29 51 143
78 2 2 3 179 51 29 147
79 2 2 3 179 61 29 146
80 2 2 3 179 29 61 147
81 2 2 3 179 61 30 145
82 2 2 3 179 30 61 148
83 2 2 3 179 30 63 141
84 2 2 3 179 63 30 148
85 2 2 3 179 33 61 146
86 2 2 3 179 61 33 148
87 2 2 3 179 63 33 142
88 2 2 3 179 33 63 148
89 2 2 3 179 51 34 144
90 2 2 3 179 34 51 147
91 2 2 3 179 34 61 145
92 2 2 3 179 61 34 147
93 2 2 3 179 63 45 137
94 2 2 3 179 45 63 139
95 2 2 3 179 46 138 142
96 2 2 3 179 137 49 141
97 2 2 3 179 50 63 138
98 2 2 3 179 63 50 139
99 2 2 3 179 63 137 141
100 2 2 3 179 138 63 142
101 2 2 4 181 9 47 151
102 2 2 4 181 50 9 151
103 2 2 4 181 47 10 149
104 2 2 4 181 10 49 149
105 2 2 4 181 11 15 152
106 2 2 4 181 22 11 152
107 2 2 4 181 48 12 150
108 2 2 4 181 12 50 150
109 2 2 4 181 26 14 156
110 2 2 4 181 14 26 157
111 2 2 4 181 14 30 153
112 2 2 4 181 30 14 157
113 2 2 4 181 49 14 153
114 2 2 4 181 14 49 156
115 2 2 4 181 15 48 155
116 2 2 4 181 15 53 152
117 2 2 4 181 53 15 155
118 2 2 4 181 25 21 154
119 2 2 4 181 21 25 158
120 2 2 4 181 21 31 155
121 2 2 4 181 31 21 158
122 2 2 4 181 21 48 154
123 2 2 4 181 48 21 155
124 2 2 4 181 49 22 156
125 2 2 4 181 53 22 152
126 2 2 4 181 22 53 156
127 2 2 4 181 25 57 158
128 2 2 4 181 57 25 159
129 2 2 4 181 63 25 154
130 2 2 4 181 25 63 159
131 2 2 4 181 53 26 156
132 2 2 4 181 26 53 160
133 2 2 4 181 26 57 157
134 2 2 4 181 57 26 160
135 2 2 4 181 57 30 157
136 2 2 4 181 30 57 159
137 2 2 4 181 30 63 153
138 2 2 4 181 63 30 159
139 2 2 4 181 31 53 155
140 2 2 4 181 53 31 160
141 2 2 4 181 57 31 158
142 2 2 4 181 31 57 160
143 2 2 4 181 63 47 149
144 2 2 4 181 47 63 151
145 2 2 4 181 48 150 154
146 2 2 4 181 149 49 153
147 2 2 4 181 50 63 150
148 2 2 4 181 63 50 151
149 2 2 4 181 63 149 153
150 2 2 4 181 150 63 154
151 2 2 5 183 13 51 162
152 2 2 5 183 54 13 162
153 2 2 5 183 14 26 164
154 2 2 5 183 34 14 164
155 2 2 5 183 15 52 163
156 2 2 5 183 53 15 163
157 2 2 5 183 52 16 161
158 2 2 5 183 16 54 161
159 2 2 5 183 26 53 165
160 2 2 5 183 26 59 164
161 2 2 5 183 59 26 165
162 2 2 5 183 51 27 162
163 2 2 5 183 27 51 166
164 2 2 5 183 59 27 166
165 2 2 5 183 27 59 167
166 2 2 5 183 27 64 162
167 2 2 5 183 64 27 167
168 2 2 5 183 51 34 166
169 2 2 5 183 59 34 164
170 2 2 5 183 34 59 166
171 2 2 5 183 35 53 163
172 2 2 5 183 53 35 165
173 2 2 5 183 35 59 165
174 2 2 5 183 59 35 167
175 2 2 5 183 64 35 163
176 2 2 5 183 35 64 167
177 2 2 5 183 64 52 161
178 2 2 5 183 52 64 163
179 2 2 5 183 54 64 161
180 2 2 5 183 64 54 162
181 2 2 6 185 17 28 170
182 2 2 6 185 29 17 170
183 2 2 6 185 27 18 51
184 2 2 6 185 55 18 27
185 2 2 6 185 52 19 168
186 2 2 6 185 19 55 168
187 2 2 6 185 20 52 169
188 2 2 6 185 56 20 169
189 2 2 6 185 27 51 171
190 2 2 6 185 64 55 27
191 2 2 6 185 58 27 171
192 2 2 6 185 27 58 172
193 2 2 6 185 64 27 172
194 2 2 6 185 28 56 173
195 2 2 6 185 28 58 170
196 2 2 6 185 58 28 173
197 2 2 6 185 51 29 171
198 2 2 6 185 58 29 170
199 2 2 6 185 29 58 171
200 2 2 6 185 32 56 169
201 2 2 6 185 56 32 173
202 2 2 6 185 58 32 172
203 2 2 6 185 32 58 173
204 2 2 6 185 64 32 169
205 2 2 6 185 32 64 172
206 2 2 6 185 64 52 168
207 2 2 6 185 52 64 169
208 2 2 6 185 55 64 168
209 2 2 7 187 21 31 176
210 2 2 7 187 36 21 176
211 2 2 7 187 22 35 53
212 2 2 7 187 22 55 35
213 2 2 7 187 23 54 174
214 2 2 7 187 55 23 174
215 2 2 7 187 54 24 175
216 2 2 7 187 24 56 175
217 2 2 7 187 31 53 177
218 2 2 7 187 31 62 176
219 2 2 7 187 62 31 177
220 2 2 7 187 56 32 175
221 2 2 7 187 32 56 178
222 2 2 7 187 62 32 178
223 2 2 7 187 32 62 179
224 2 2 7 187 32 64 175
225 2 2 7 187 64 32 179
226 2 2 7 187 53 35 177
227 2 2 7 187 35 55 64
228 2 2 7 187 35 62 177
229 2 2 7 187 62 35 179
230 2 2 7 187 35 64 179
231 2 2 7 187 56 36 178
232 2 2 7 187 62 36 176
233 2 2 7 187 36 62 178
234 2 2 7 187 54 64 174
235 2 2 7 187 64 54 175
236 2 2 7 187 64 55 174
237 2 2 8 189 25 57 180
238 2 2 8 189 60 25 180
239 2 2 8 189 57 26 181
240 2 2 8 189 26 59 181
241 2 2 8 189 27 58 182
242 2 2 8 189 59 27 182
243 2 2 8 189 58 28 183
244 2 2 8 189 28 60 183
245 2 2 8 189 57 65 180
246 2 2 8 189 65 57 181
247 2 2 8 189 58 65 182
248 2 2 8 189 65 58 183
249 2 2 8 189 59 65 181
250 2 2 8 189 65 59 182
251 2 2 8 189 65 60 180
252 2 2 8 189 60 65 183
253 2 2 9 191 29 58 184
254 2 2 9 191 61 29 184
255 2 2 9 191 57 30 185
256 2 2 9 191 30 61 185
257 2 2 9 191 31 57 186
258 2 2 9 191 62 31 186
259 2 2 9 191 58 32 187
260 2 2 9 191 32 62 187
261 2 2 9 191 65 57 185
262 2 2 9 191 57 65 186
263 2 2 9 191 58 65 184
264 2 2 9 191 65 58 187
265 2 2 9 191 65 61 184
266 2 2 9 191 61 65 185
267 2 2 9 191 65 62 186
268 2 2 9 191 62 65 187
269 2 2 10 193 60 188 33
270 2 2 10 193 33 188 61
271 2 2 10 193 34 189 59
272 2 2 10 193 61 189 34
273 2 2 10 193 59 190 35
274 2 2 10 193 35 190 62
275 2 2 10 193 36 191 60
276 2 2 10 193 62 191 36
277 2 2 10 193 59 189 65
278 2 2 10 193 65 190 59
279 2 2 10 193 65 188 60
280 2 2 10 193 60 191 65
281 2 2 10 193 61 188 65
282 2 2 10 193 65 189 61
283 2 2 10 193 62 190 65
284 2 2 10 193 65 191 62
285 4 2 1 1 59 166 144 89
286 4 2 1 1 156 165 59 89
287 4 2 1 1 28 138 56 136
288 4 2 1 1 34 149 51 147
289 4 2 1 1 56 150 36 136
290 4 2 1 1 51 126 29 147
291 4 2 1 1 31 125 53 160
292 4 2 1 1 160 53 26 137
293 4 2 1 1 26 53 156 90
294 4 2 1 1 106 36 131 56
295 4 2 1 1 51 34 144 91
296 4 2 1 1 121 132 28 56
297 4 2 1 1 143 120 29 51
298 4 2 1 1 155 53 31 105
299 4 2 1 1 149 34 153 147
300 4 2 1 1 138 28 142 136
301 4 2 1 1 129 29 126 147
302 4 2 1 1 130 125 31 160
303 4 2 1 1 150 154 36 136
304 4 2 1 1 26 141 160 137
305 4 2 1 1 167 27 59 89
306 4 2 1 1 27 166 59 89
307 4 2 1 1 35 167 59 89
308 4 2 1 1 165 35 59 89
309 4 2 1 1 138 28 132 142
310 4 2 1 1 126 143 29 129
311 4 2 1 1 154 150 36 131
312 4 2 1 1 153 34 149 144
313 4 2 1 1 130 125 155 31
314 4 2 1 1 141 26 156 137
315 4 2 1 1 106 36 150 131
316 4 2 1 1 126 143 120 29
317 4 2 1 1 132 28 138 121
318 4 2 1 1 31 125 155 105
319 4 2 1 1 144 34 149 91
320 4 2 1 1 137 26 156 90
321 4 2 1 1 121 28 138 56
322 4 2 1 1 106 150 36 56
323 4 2 1 1 29 120 126 51
324 4 2 1 1 34 51 149 91
325 4 2 1 1 53 26 137 90
326 4 2 1 1 31 53 125 105
327 4 2 1 1 136 142 154 60
328 4 2 1 1 153 61 129 147
329 4 2 1 1 141 130 57 160
330 4 2 1 1 149 126 51 147
331 4 2 1 1 138 150 56 136
332 4 2 1 1 160 125 53 137
333 4 2 1 1 169 131 104 62
334 4 2 1 1 163 169 104 62
335 4 2 1 1 175 119 132 58
336 4 2 1 1 162 119 175 58
337 4 2 1 1 112 105 53 90
338 4 2 1 1 120 97 51 91
339 4 2 1 1 82 106 121 56
340 4 2 1 1 131 155 104 62
341 4 2 1 1 163 104 155 62
342 4 2 1 1 156 59 144 89
343 4 2 1 1 119 162 143 58
344 4 2 1 1 143 132 119 58
345 4 2 1 1 136 154 36 60
346 4 2 1 1 145 34 61 153
347 4 2 1 1 29 146 61 129
348 4 2 1 1 26 157 57 141
349 4 2 1 1 134 36 154 60
350 4 2 1 1 136 28 142 60
351 4 2 1 1 153 34 61 147
352 4 2 1 1 60 28 142 133
353 4 2 1 1 61 29 129 147
354 4 2 1 1 57 26 141 160
355 4 2 1 1 57 31 130 158
356 4 2 1 1 31 57 130 160
357 4 2 1 1 173 175 132 58
358 4 2 1 1 178 131 169 62
359 4 2 1 1 177 163 155 62
360 4 2 1 1 176 155 131 62
361 4 2 1 1 164 59 144 156
362 4 2 1 1 169 163 179 62
363 4 2 1 1 128 121 106 56
364 4 2 1 1 91 51 120 140
365 4 2 1 1 132 143 170 58
366 4 2 1 1 58 162 143 171
367 4 2 1 1 152 53 105 90
368 4 2 1 1 162 175 172 58
369 4 2 1 1 137 112 53 90
370 4 2 1 1 97 149 51 91
371 4 2 1 1 53 125 105 112
372 4 2 1 1 106 82 150 56
373 4 2 1 1 126 120 97 51
374 4 2 1 1 138 82 121 56
375 4 2 1 1 47 9 151 98
376 4 2 1 1 9 50 151 85
377 4 2 1 1 2 45 114 127
378 4 2 1 1 47 2 100 127
379 4 2 1 1 5 50 84 139
380 4 2 1 1 45 5 115 139
381 4 2 1 1 16 54 161 122
382 4 2 1 1 16 52 107 161
383 4 2 1 1 54 23 174 123
384 4 2 1 1 52 19 108 168
385 4 2 1 1 55 27 167 89
386 4 2 1 1 167 35 55 89
387 4 2 1 1 103 111 139 80
388 4 2 1 1 113 83 99 197
389 4 2 1 1 113 83 197 196
390 4 2 1 1 197 99 113 195
391 4 2 1 1 113 197 195 196
392 4 2 1 1 133 146 188 184
393 4 2 1 1 192 194 94 193
394 4 2 1 1 95 151 81 118
395 4 2 1 1 147 182 166 189
396 4 2 1 1 181 186 165 160
397 4 2 1 1 161 128 116 101
398 4 2 1 1 94 109 194 124
399 4 2 1 1 194 94 124 192
400 4 2 1 1 194 109 94 193
401 4 2 1 1 159 148 185 135
402 4 2 1 1 135 148 185 188
403 4 2 1 1 88 127 110 96
404 4 2 1 1 182 147 184 189
405 4 2 1 1 145 185 189 157
406 4 2 1 1 181 189 185 157
407 4 2 1 1 185 180 159 135
408 4 2 1 1 135 185 180 188
409 4 2 1 1 183 133 188 184
410 4 2 1 1 190 167 187 182
411 4 2 1 1 165 190 186 181
412 4 2 1 1 157 181 189 164
413 4 2 1 1 157 189 145 164
414 4 2 1 1 167 172 187 182
415 4 2 1 1 177 165 186 160
416 4 2 1 1 187 178 191 183
417 4 2 1 1 177 165 190 186
418 4 2 1 1 190 167 179 187
419 4 2 1 1 191 178 136 183
420 4 2 1 1 191 134 176 180
421 4 2 1 1 176 186 191 180
422 4 2 1 1 146 133 170 184
423 4 2 1 1 133 183 170 184
424 4 2 1 1 180 134 176 158
425 4 2 1 1 176 186 180 158
426 4 2 1 1 178 187 173 183
427 4 2 1 1 140 86 174 117
428 4 2 1 1 87 152 168 102
429 4 2 1 1 173 136 178 183
430 4 2 1 1 179 167 172 187
431 4 2 1 1 147 182 171 166
432 4 2 1 1 184 147 182 171
433 4 2 1 1 175 161 128 116
434 4 2 1 1 161 128 101 169
435 4 2 1 1 117 174 140 162
436 4 2 1 1 102 152 168 163
437 4 2 1 1 128 161 175 169
438 4 2 1 1 165 53 22 156
439 4 2 1 1 144 51 18 166
440 4 2 1 1 23 55 174 93
441 4 2 1 1 55 19 168 92
442 4 2 1 1 149 126 97 51
443 4 2 1 1 82 138 150 56
444 4 2 1 1 53 125 112 137
445 4 2 1 1 174 86 140 27
446 4 2 1 1 168 152 87 35
447 4 2 1 1 21 103 130 154
448 4 2 1 1 118 142 17 129
449 4 2 1 1 141 14 153 88
450 4 2 1 1 32 58 175 173
451 4 2 1 1 59 26 165 156
452 4 2 1 1 31 155 176 62
453 4 2 1 1 36 131 178 62
454 4 2 1 1 58 29 143 170
455 4 2 1 1 178 169 32 62
456 4 2 1 1 131 36 176 62
457 4 2 1 1 177 155 31 62
458 4 2 1 1 58 28 132 173
459 4 2 1 1 28 58 132 170
460 4 2 1 1 144 34 166 59
461 4 2 1 1 59 144 34 164
462 4 2 1 1 59 26 156 164
463 4 2 1 1 32 58 172 175
464 4 2 1 1 51 13 120 140
465 4 2 1 1 128 106 20 56
466 4 2 1 1 128 24 121 56
467 4 2 1 1 15 152 53 105
468 4 2 1 1 29 58 143 171
469 4 2 1 1 169 179 32 62
470 4 2 1 1 120 143 13 51
471 4 2 1 1 53 155 15 105
472 4 2 1 1 131 20 106 56
473 4 2 1 1 24 132 121 56
474 4 2 1 1 163 152 168 35
475 4 2 1 1 162 174 140 27
476 4 2 1 1 153 129 126 147
477 4 2 1 1 160 141 130 137
478 4 2 1 1 142 154 138 136
479 4 2 1 1 139 125 111 103
480 4 2 1 1 138 81 151 118
481 4 2 1 1 137 88 127 110
482 4 2 1 1 151 95 126 118
483 4 2 1 1 80 139 103 150
484 4 2 1 1 127 88 149 96
485 4 2 1 1 18 51 91 140
486 4 2 1 1 53 152 22 90
487 4 2 1 1 156 53 22 90
488 4 2 1 1 18 51 144 91
489 4 2 1 1 69 72 161 168
490 4 2 1 1 151 78 139 127
491 4 2 1 1 151 76 78 127
492 4 2 1 1 174 72 68 168
493 4 2 1 1 174 161 72 168
494 4 2 1 1 126 142 118 129
495 4 2 1 1 130 103 125 154
496 4 2 1 1 169 161 175 32
497 4 2 1 1 175 128 169 32
498 4 2 1 1 35 87 168 55
499 4 2 1 1 174 86 27 55
500 4 2 1 1 87 152 22 35
501 4 2 1 1 86 18 140 27
502 4 2 1 1 106 150 48 131
503 4 2 1 1 46 132 138 121
504 4 2 1 1 46 126 143 120
505 4 2 1 1 149 144 91 49
506 4 2 1 1 125 48 155 105
507 4 2 1 1 156 49 137 90
508 4 2 1 1 126 138 151 118
509 4 2 1 1 139 125 103 150
510 4 2 1 1 149 137 88 127
511 4 2 1 1 143 126 46 129
512 4 2 1 1 138 132 46 142
513 4 2 1 1 149 153 144 49
514 4 2 1 1 150 154 48 131
515 4 2 1 1 125 48 130 155
516 4 2 1 1 156 49 141 137
517 4 2 1 1 153 129 61 148
518 4 2 1 1 60 142 154 135
519 4 2 1 1 130 57 159 141
520 4 2 1 1 150 138 154 136
521 4 2 1 1 160 130 125 137
522 4 2 1 1 126 149 153 147
523 4 2 1 1 64 167 35 55
524 4 2 1 1 167 64 27 55
525 4 2 1 1 22 53 165 35
526 4 2 1 1 27 18 51 166
527 4 2 1 1 55 18 27 89
528 4 2 1 1 18 55 27 86
529 4 2 1 1 55 22 35 87
530 4 2 1 1 22 55 35 89
531 4 2 1 1 154 103 125 150
532 4 2 1 1 142 126 118 138
533 4 2 1 1 36 21 154 131
534 4 2 1 1 14 34 153 144
535 4 2 1 1 29 143 17 129
536 4 2 1 1 21 130 155 31
537 4 2 1 1 26 156 14 141
538 4 2 1 1 132 28 17 142
539 4 2 1 1 49 153 14 88
540 4 2 1 1 17 46 142 118
541 4 2 1 1 48 21 103 130
542 4 2 1 1 48 103 21 154
543 4 2 1 1 17 46 118 129
544 4 2 1 1 141 49 14 88
545 4 2 1 1 131 169 56 178
546 4 2 1 1 53 163 155 177
547 4 2 1 1 17 132 143 170
548 4 2 1 1 21 155 131 176
549 4 2 1 1 164 144 14 156
550 4 2 1 1 91 120 7 140
551 4 2 1 1 121 106 4 128
552 4 2 1 1 105 11 152 90
553 4 2 1 1 64 169 163 179
554 4 2 1 1 64 162 175 172
555 4 2 1 1 56 175 132 173
556 4 2 1 1 162 51 143 171
557 4 2 1 1 50 77 78 151
558 4 2 1 1 78 139 50 151
559 4 2 1 1 127 79 78 45
560 4 2 1 1 127 78 139 45
561 4 2 1 1 161 54 174 72
562 4 2 1 1 145 61 30 153
563 4 2 1 1 142 33 60 133
564 4 2 1 1 146 33 61 129
565 4 2 1 1 129 33 61 148
566 4 2 1 1 153 61 30 148
567 4 2 1 1 60 25 154 134
568 4 2 1 1 57 25 130 159
569 4 2 1 1 25 60 154 135
570 4 2 1 1 60 33 142 135
571 4 2 1 1 30 57 141 159
572 4 2 1 1 25 57 130 158
573 4 2 1 1 57 30 141 157
574 4 2 1 1 64 175 161 32
575 4 2 1 1 128 169 32 56
576 4 2 1 1 161 169 64 32
577 4 2 1 1 175 128 32 56
578 4 2 1 1 81 37 9 95
579 4 2 1 1 39 111 3 103
580 4 2 1 1 16 52 161 101
581 4 2 1 1 99 83 38 75
582 4 2 1 1 47 63 127 151
583 4 2 1 1 50 9 151 81
584 4 2 1 1 45 5 139 111
585 4 2 1 1 38 113 99 73
586 4 2 1 1 5 111 39 80
587 4 2 1 1 5 50 139 80
588 4 2 1 1 83 113 38 74
589 4 2 1 1 12 39 103 80
590 4 2 1 1 9 47 151 95
591 4 2 1 1 63 50 139 151
592 4 2 1 1 47 2 127 96
593 4 2 1 1 81 8 37 118
594 4 2 1 1 95 37 1 118
595 4 2 1 1 70 109 44 124
596 4 2 1 1 54 16 161 116
597 4 2 1 1 124 94 44 66
598 4 2 1 1 109 44 94 67
599 4 2 1 1 188 65 60 183
600 4 2 1 1 65 62 187 190
601 4 2 1 1 191 60 180 65
602 4 2 1 1 191 60 65 183
603 4 2 1 1 62 65 187 191
604 4 2 1 1 62 65 186 190
605 4 2 1 1 65 58 187 183
606 4 2 1 1 65 57 180 186
607 4 2 1 1 60 180 65 188
608 4 2 1 1 61 65 184 189
609 4 2 1 1 65 59 190 182
610 4 2 1 1 61 65 185 188
611 4 2 1 1 61 65 189 185
612 4 2 1 1 65 58 182 187
613 4 2 1 1 65 58 184 182
614 4 2 1 1 57 65 180 185
615 4 2 1 1 65 57 186 181
616 4 2 1 1 65 59 181 190
617 4 2 1 1 59 65 181 189
618 4 2 1 1 6 88 110 42
619 4 2 1 1 63 45 127 139
620 4 2 1 1 2 110 96 42
621 4 2 1 1 96 88 10 42
622 4 2 1 1 62 65 191 186
623 4 2 1 1 65 61 184 188
624 4 2 1 1 65 57 181 185
625 4 2 1 1 65 59 182 189
626 4 2 1 1 58 65 184 183
627 4 2 1 1 2 45 127 110
628 4 2 1 1 52 168 161 64
629 4 2 1 1 52 19 168 102
630 4 2 1 1 23 54 174 117
631 4 2 1 1 174 54 161 64
632 4 2 1 1 45 63 125 139
633 4 2 1 1 47 63 151 126
634 4 2 1 1 63 50 151 138
635 4 2 1 1 63 50 150 139
636 4 2 1 1 63 45 137 127
637 4 2 1 1 47 63 149 127
638 4 2 1 1 97 120 1 41
639 4 2 1 1 12 82 106 40
640 4 2 1 1 8 82 40 121
641 4 2 1 1 91 97 10 41
642 4 2 1 1 3 43 105 112
643 4 2 1 1 112 6 43 90
644 4 2 1 1 63 45 125 137
645 4 2 1 1 63 47 149 126
646 4 2 1 1 50 63 150 138
647 4 2 1 1 169 52 161 64
648 4 2 1 1 161 54 175 64
649 4 2 1 1 54 174 162 64
650 4 2 1 1 168 52 163 64
651 4 2 1 1 40 106 4 121
652 4 2 1 1 7 120 91 41
653 4 2 1 1 162 175 54 64
654 4 2 1 1 52 169 163 64
655 4 2 1 1 105 43 11 90
656 4 2 1 1 32 62 187 178
657 4 2 1 1 58 32 187 173
658 4 2 1 1 62 32 187 179
659 4 2 1 1 32 58 187 172
660 4 2 1 1 191 136 36 60
661 4 2 1 1 34 59 189 166
662 4 2 1 1 36 134 191 60
663 4 2 1 1 62 31 177 186
664 4 2 1 1 176 31 62 186
665 4 2 1 1 57 181 26 160
666 4 2 1 1 34 61 189 145
667 4 2 1 1 60 136 28 183
668 4 2 1 1 133 60 28 183
669 4 2 1 1 61 34 189 147
670 4 2 1 1 61 29 184 146
671 4 2 1 1 29 61 184 147
672 4 2 1 1 59 26 181 165
673 4 2 1 1 26 59 181 164
674 4 2 1 1 59 34 189 164
675 4 2 1 1 57 181 157 26
676 4 2 1 1 31 57 160 186
677 4 2 1 1 31 57 186 158
678 4 2 1 1 36 62 191 176
679 4 2 1 1 183 173 28 58
680 4 2 1 1 62 36 191 178
681 4 2 1 1 170 183 28 58
682 4 2 1 1 29 58 184 170
683 4 2 1 1 29 58 171 184
684 4 2 1 1 24 54 175 116
685 4 2 1 1 104 52 20 169
686 4 2 1 1 24 54 119 175
687 4 2 1 1 52 101 20 169
688 4 2 1 1 13 117 162 54
689 4 2 1 1 15 102 52 163
690 4 2 1 1 119 13 162 54
691 4 2 1 1 104 15 52 163
692 4 2 1 1 169 128 20 56
693 4 2 1 1 128 175 24 56
694 4 2 1 1 140 51 13 162
695 4 2 1 1 163 15 152 53
696 4 2 1 1 14 156 49 141
697 4 2 1 1 46 132 17 142
698 4 2 1 1 46 17 143 129
699 4 2 1 1 21 48 154 131
700 4 2 1 1 130 48 21 155
701 4 2 1 1 144 153 14 49
702 4 2 1 1 20 131 169 56
703 4 2 1 1 175 132 24 56
704 4 2 1 1 51 143 13 162
705 4 2 1 1 163 155 15 53
706 4 2 1 1 154 48 103 150
707 4 2 1 1 118 46 126 129
708 4 2 1 1 48 103 125 130
709 4 2 1 1 149 153 49 88
710 4 2 1 1 46 138 142 118
711 4 2 1 1 49 141 137 88
712 4 2 1 1 103 125 3 48
713 4 2 1 1 12 103 48 150
714 4 2 1 1 46 8 138 118
715 4 2 1 1 49 10 149 88
716 4 2 1 1 126 1 46 118
717 4 2 1 1 137 6 49 88
718 4 2 1 1 91 10 149 49
719 4 2 1 1 46 138 8 121
720 4 2 1 1 48 125 3 105
721 4 2 1 1 150 48 12 106
722 4 2 1 1 126 46 1 120
723 4 2 1 1 137 49 6 90
724 4 2 1 1 57 25 180 158
725 4 2 1 1 61 33 188 148
726 4 2 1 1 30 61 145 185
727 4 2 1 1 33 61 188 146
728 4 2 1 1 30 57 159 185
729 4 2 1 1 30 57 185 157
730 4 2 1 1 30 61 185 148
731 4 2 1 1 60 25 180 135
732 4 2 1 1 57 25 159 180
733 4 2 1 1 60 33 188 133
734 4 2 1 1 33 60 188 135
735 4 2 1 1 60 25 134 180
736 4 2 1 1 123 192 174 72
737 4 2 1 1 139 78 196 115
738 4 2 1 1 139 78 84 196
739 4 2 1 1 194 122 161 72
740 4 2 1 1 53 22 152 35
741 4 2 1 1 18 51 140 27
742 4 2 1 1 27 64 174 55
743 4 2 1 1 35 168 64 55
744 4 2 1 1 8 50 138 81
745 4 2 1 1 50 8 138 82
746 4 2 1 1 12 50 150 82
747 4 2 1 1 1 47 95 126
748 4 2 1 1 1 47 126 97
749 4 2 1 1 47 10 96 149
750 4 2 1 1 45 3 125 112
751 4 2 1 1 6 45 110 137
752 4 2 1 1 47 10 149 97
753 4 2 1 1 6 45 137 112
754 4 2 1 1 45 3 111 125
755 4 2 1 1 12 50 80 150
756 4 2 1 1 55 19 87 168
757 4 2 1 1 55 23 174 86
758 4 2 1 1 168 174 64 55
759 4 2 1 1 142 138 151 126
760 4 2 1 1 125 139 154 150
761 4 2 1 1 63 154 142 135
762 4 2 1 1 159 63 130 141
763 4 2 1 1 153 63 129 148
764 4 2 1 1 177 190 62 186
765 4 2 1 1 87 168 19 102
766 4 2 1 1 151 81 9 95
767 4 2 1 1 181 185 57 157
768 4 2 1 1 110 127 2 96
769 4 2 1 1 75 99 83 197
770 4 2 1 1 72 194 192 193
771 4 2 1 1 78 195 197 196
772 4 2 1 1 38 113 83 99
773 4 2 1 1 73 113 99 195
774 4 2 1 1 111 5 139 80
775 4 2 1 1 103 39 111 80
776 4 2 1 1 57 180 186 158
777 4 2 1 1 95 81 37 118
778 4 2 1 1 147 61 184 189
779 4 2 1 1 181 57 186 160
780 4 2 1 1 63 151 139 127
781 4 2 1 1 65 190 187 182
782 4 2 1 1 16 161 116 101
783 4 2 1 1 148 61 185 188
784 4 2 1 1 109 70 194 124
785 4 2 1 1 94 44 109 124
786 4 2 1 1 65 187 191 183
787 4 2 1 1 189 185 65 181
788 4 2 1 1 183 188 65 184
789 4 2 1 1 133 188 60 183
790 4 2 1 1 60 191 136 183
791 4 2 1 1 146 61 188 184
792 4 2 1 1 60 134 191 180
793 4 2 1 1 180 57 185 159
794 4 2 1 1 181 59 189 164
795 4 2 1 1 65 186 190 181
796 4 2 1 1 185 65 180 188
797 4 2 1 1 180 60 135 188
798 4 2 1 1 185 61 145 189
799 4 2 1 1 184 65 182 189
800 4 2 1 1 190 165 59 181
801 4 2 1 1 76 151 47 127
802 4 2 1 1 113 83 196 74
803 4 2 1 1 187 179 190 62
804 4 2 1 1 187 173 183 58
805 4 2 1 1 174 86 23 117
806 4 2 1 1 94 124 192 66
807 4 2 1 1 109 94 193 67
808 4 2 1 1 62 187 178 191
809 4 2 1 1 186 191 180 65
810 4 2 1 1 186 62 176 191
811 4 2 1 1 58 170 183 184
812 4 2 1 1 58 187 172 182
813 4 2 1 1 190 167 182 59
814 4 2 1 1 182 166 189 59
815 4 2 1 1 96 110 88 42
816 4 2 1 1 168 161 69 52
817 4 2 1 1 182 58 184 171
818 4 2 1 1 168 174 161 64
819 4 2 1 1 106 20 4 128
820 4 2 1 1 29 17 143 170
821 4 2 1 1 132 17 28 170
822 4 2 1 1 132 28 56 173
823 4 2 1 1 176 21 155 31
824 4 2 1 1 56 36 131 178
825 4 2 1 1 131 36 21 176
826 4 2 1 1 155 53 177 31
827 4 2 1 1 14 34 144 164
828 4 2 1 1 165 53 156 26
829 4 2 1 1 144 34 51 166
830 4 2 1 1 156 14 164 26
831 4 2 1 1 152 15 11 105
832 4 2 1 1 51 29 143 171
833 4 2 1 1 13 7 120 140
834 4 2 1 1 4 24 121 128
835 4 2 1 1 179 64 169 32
836 4 2 1 1 56 32 175 173
837 4 2 1 1 175 64 172 32
838 4 2 1 1 169 32 56 178
839 4 2 1 1 46 24 132 121
840 4 2 1 1 13 46 143 120
841 4 2 1 1 106 48 20 131
842 4 2 1 1 155 48 15 105
843 4 2 1 1 52 161 101 169
844 4 2 1 1 175 54 161 116
845 4 2 1 1 162 117 174 54
846 4 2 1 1 52 102 168 163
847 4 2 1 1 172 179 187 32
848 4 2 1 1 32 187 173 178
849 4 2 1 1 28 133 183 170
850 4 2 1 1 34 147 166 189
851 4 2 1 1 26 181 165 160
852 4 2 1 1 34 145 189 164
853 4 2 1 1 164 157 181 26
854 4 2 1 1 186 31 177 160
855 4 2 1 1 36 134 176 191
856 4 2 1 1 136 173 28 183
857 4 2 1 1 29 146 170 184
858 4 2 1 1 147 184 29 171
859 4 2 1 1 178 136 36 191
860 4 2 1 1 176 31 186 158
861 4 2 1 1 81 138 8 118
862 4 2 1 1 111 125 3 103
863 4 2 1 1 103 12 80 150
864 4 2 1 1 126 95 1 118
865 4 2 1 1 88 137 6 110
866 4 2 1 1 10 149 88 96
867 4 2 1 1 82 106 40 121
868 4 2 1 1 120 97 91 41
869 4 2 1 1 43 105 112 90
870 4 2 1 1 175 119 162 54
871 4 2 1 1 169 104 52 163
872 4 2 1 1 128 24 175 116
873 4 2 1 1 101 128 20 169
874 4 2 1 1 117 140 13 162
875 4 2 1 1 102 15 152 163
876 4 2 1 1 120 1 126 97
877 4 2 1 1 6 112 137 90
878 4 2 1 1 12 82 150 106
879 4 2 1 1 138 82 8 121
880 4 2 1 1 105 125 3 112
881 4 2 1 1 149 97 10 91
882 4 2 1 1 50 85 77 151
883 4 2 1 1 151 98 76 47
884 4 2 1 1 127 114 79 45
885 4 2 1 1 100 76 47 127
886 4 2 1 1 168 69 108 52
887 4 2 1 1 161 107 69 52
888 4 2 1 1 63 30 153 141
889 4 2 1 1 142 63 33 129
890 4 2 1 1 63 130 154 25
891 4 2 1 1 132 24 119 175
892 4 2 1 1 131 104 20 169
893 4 2 1 1 162 143 13 119
894 4 2 1 1 15 104 155 163
895 4 2 1 1 180 25 134 158
896 4 2 1 1 180 25 159 135
897 4 2 1 1 33 148 135 188
898 4 2 1 1 33 146 188 133
899 4 2 1 1 148 185 30 159
900 4 2 1 1 185 145 30 157
901 4 2 1 1 91 7 18 140
902 4 2 1 1 152 11 22 90
903 4 2 1 1 91 144 18 49
904 4 2 1 1 49 156 22 90
905 4 2 1 1 85 98 197 151
906 4 2 1 1 114 195 100 127
907 4 2 1 1 93 192 174 123
908 4 2 1 1 108 92 193 168
909 4 2 1 1 196 84 139 115
910 4 2 1 1 107 122 161 194
911 4 2 1 1 168 68 174 55
912 4 2 1 1 62 35 177 163
913 4 2 1 1 27 58 162 172
914 4 2 1 1 62 35 163 179
915 4 2 1 1 58 27 162 171
916 4 2 1 1 196 78 79 115
917 4 2 1 1 78 77 84 196
918 4 2 1 1 122 194 71 72
919 4 2 1 1 192 123 71 72
920 4 2 1 1 68 93 174 55
921 4 2 1 1 168 92 68 55
922 4 2 1 1 197 83 75 77
923 4 2 1 1 68 72 192 193
924 4 2 1 1 66 192 94 68
925 4 2 1 1 75 99 197 76
926 4 2 1 1 195 73 113 79
927 4 2 1 1 77 78 197 196
928 4 2 1 1 78 79 195 196
929 4 2 1 1 67 193 109 69
930 4 2 1 1 193 72 194 69
931 4 2 1 1 124 192 66 71
932 4 2 1 1 124 70 194 71
933 4 2 1 1 194 70 109 69
934 4 2 1 1 196 79 113 74
935 4 2 1 1 197 76 195 78
936 4 2 1 1 99 76 73 195
937 4 2 1 1 196 83 77 74
938 4 2 1 1 94 68 193 67
939 4 2 1 1 194 192 71 72
940 4 2 1 1 100 73 195 114
941 4 2 1 1 84 196 74 115
942 4 2 1 1 75 85 98 197
943 4 2 1 1 194 107 122 70
944 4 2 1 1 67 92 193 108
945 4 2 1 1 93 66 192 123
946 4 2 1 1 127 149 47 96
947 4 2 1 1 111 125 139 45
948 4 2 1 1 81 50 138 151
949 4 2 1 1 150 80 139 50
950 4 2 1 1 95 47 151 126
951 4 2 1 1 110 127 137 45
952 4 2 1 1 33 63 142 135
953 4 2 1 1 63 33 129 148
954 4 2 1 1 159 30 63 141
955 4 2 1 1 25 154 63 135
956 4 2 1 1 153 30 63 148
957 4 2 1 1 63 130 25 159
958 4 2 1 1 142 151 138 63
959 4 2 1 1 139 154 150 63
960 4 2 1 1 137 141 63 127
961 4 2 1 1 99 197 76 195
962 4 2 1 1 79 113 195 196
963 4 2 1 1 77 197 83 196
964 4 2 1 1 68 192 94 193
965 4 2 1 1 192 124 194 71
966 4 2 1 1 194 109 193 69
967 4 2 1 1 129 126 63 153
968 4 2 1 1 141 63 130 137
969 4 2 1 1 138 154 142 63
970 4 2 1 1 152 163 53 35
971 4 2 1 1 140 51 162 27
972 4 2 1 1 174 162 64 27
973 4 2 1 1 168 163 35 64
974 4 2 1 1 26 14 157 141
975 4 2 1 1 17 146 29 129
976 4 2 1 1 14 34 145 153
977 4 2 1 1 31 21 130 158
978 4 2 1 1 28 17 142 133
979 4 2 1 1 154 21 36 134
980 4 2 1 1 19 92 108 168
981 4 2 1 1 93 174 23 123
982 4 2 1 1 98 85 9 151
983 4 2 1 1 5 139 84 115
984 4 2 1 1 114 100 2 127
985 4 2 1 1 122 161 16 107
986 4 2 1 1 150 154 138 63
987 4 2 1 1 149 63 126 153
988 4 2 1 1 125 130 63 137
989 4 2 1 1 47 126 97 149
990 4 2 1 1 137 125 112 45
991 4 2 1 1 150 138 82 50
992 4 2 1 1 116 4 16 101
993 4 2 1 1 87 19 11 102
994 4 2 1 1 7 23 86 117
995 4 2 1 1 156 144 14 49
996 4 2 1 1 17 132 46 143
997 4 2 1 1 48 21 155 131
998 4 2 1 1 73 195 114 79
999 4 2 1 1 197 98 75 76
1000 4 2 1 1 76 100 73 195
1001 4 2 1 1 75 85 197 77
1002 4 2 1 1 77 84 196 74
1003 4 2 1 1 74 196 79 115
1004 4 2 1 1 192 66 93 68
1005 4 2 1 1 70 194 107 69
1006 4 2 1 1 193 67 108 69
1007 4 2 1 1 92 193 68 67
1008 4 2 1 1 123 66 192 71
1009 4 2 1 1 122 194 70 71
1010 4 2 1 1 173 56 32 178
1011 4 2 1 1 11 15 152 102
1012 4 2 1 1 140 13 7 117
1013 4 2 1 1 128 20 4 101
1014 4 2 1 1 4 24 128 116
1015 4 2 1 1 179 172 64 32
1016 4 2 1 1 147 51 34 166
1017 4 2 1 1 165 53 26 160
1018 4 2 1 1 145 34 14 164
1019 4 2 1 1 14 157 164 26
1020 4 2 1 1 29 146 17 170
1021 4 2 1 1 31 176 21 158
1022 4 2 1 1 28 56 173 136
1023 4 2 1 1 21 36 134 176
1024 4 2 1 1 136 36 56 178
1025 4 2 1 1 147 29 51 171
1026 4 2 1 1 28 17 133 170
1027 4 2 1 1 31 53 177 160
1028 4 2 1 1 143 46 13 119
1029 4 2 1 1 104 48 15 155
1030 4 2 1 1 46 132 24 119
1031 4 2 1 1 104 20 48 131
1032 4 2 1 1 163 35 64 179
1033 4 2 1 1 172 64 162 27
1034 4 2 1 1 177 53 163 35
1035 4 2 1 1 162 51 171 27
1036 4 2 1 1 14 30 145 157
1037 4 2 1 1 25 21 134 158
1038 4 2 1 1 146 33 17 133
1039 4 2 1 1 140 7 18 86
1040 4 2 1 1 152 22 11 87
1041 4 2 1 1 89 156 22 49
1042 4 2 1 1 89 18 144 49
1043 4 2 1 1 59 35 190 167
1044 4 2 1 1 35 59 190 165
1045 4 2 1 1 27 182 167 59
1046 4 2 1 1 182 27 166 59
1047 4 2 1 1 35 62 190 179
1048 4 2 1 1 62 35 190 177
1049 4 2 1 1 27 58 172 182
1050 4 2 1 1 27 58 182 171
1051 4 2 1 1 172 64 167 179
1052 4 2 1 1 11 152 87 102
1053 4 2 1 1 86 140 7 117
1054 4 2 1 1 116 128 4 101
1055 4 2 1 1 133 17 146 170
1056 4 2 1 1 157 145 14 164
1057 4 2 1 1 56 173 136 178
1058 4 2 1 1 165 177 53 160
1059 4 2 1 1 171 51 147 166
1060 4 2 1 1 176 134 21 158
1061 4 2 1 1 132 46 143 119
1062 4 2 1 1 155 104 48 131
1063 4 2 1 1 144 156 89 49
1064 4 2 1 1 73 100 2 114
1065 4 2 1 1 74 5 84 115
1066 4 2 1 1 85 9 75 98
1067 4 2 1 1 67 19 92 108
1068 4 2 1 1 16 122 107 70
1069 4 2 1 1 93 23 66 123
1070 4 2 1 1 167 35 190 179
1071 4 2 1 1 167 172 182 27
1072 4 2 1 1 190 165 177 35
1073 4 2 1 1 27 171 182 166
1074 4 2 1 1 134 154 21 25
1075 4 2 1 1 146 17 33 129
1076 4 2 1 1 145 30 14 153
1077 4 2 1 1 14 30 157 141
1078 4 2 1 1 33 142 17 133
1079 4 2 1 1 25 130 21 158
1080 4 2 1 1 53 177 165 35
1081 4 2 1 1 35 167 64 179
1082 4 2 1 1 167 64 172 27
1083 4 2 1 1 51 171 27 166
1084 4 2 1 1 154 130 21 25
1085 4 2 1 1 153 30 14 141
1086 4 2 1 1 33 17 142 129
1087 4 2 1 1 148 30 63 159
1088 4 2 1 1 25 63 159 135
1089 4 2 1 1 63 33 148 135
1090 4 2 1 1 159 63 148 135
1091 4 2 1 1 89 166 18 27
1092 4 2 1 1 89 18 166 144
1093 4 2 1 1 165 89 22 35
1094 4 2 1 1 22 89 165 156
1095 4 2 1 1 141 88 149 137
1096 4 2 1 1 149 88 141 153
1097 4 2 1 1 149 127 141 137
1098 4 2 1 1 168 69 193 108
1099 4 2 1 1 168 193 69 72
1100 4 2 1 1 123 72 54 71
1101 4 2 1 1 54 72 123 174
1102 4 2 1 1 115 78 45 139
1103 4 2 1 1 115 45 78 79
1104 4 2 1 1 127 76 195 100
1105 4 2 1 1 127 195 76 78
1106 4 2 1 1 151 77 197 85
1107 4 2 1 1 151 197 77 78
1108 4 2 1 1 78 84 50 139
1109 4 2 1 1 50 84 78 77
1110 4 2 1 1 151 76 197 78
1111 4 2 1 1 151 197 76 98
1112 4 2 1 1 127 79 195 78
1113 4 2 1 1 127 195 79 114
1114 4 2 1 1 72 122 54 71
1115 4 2 1 1 72 54 122 161
1116 4 2 1 1 69 161 194 107
1117 4 2 1 1 69 194 161 72
1118 4 2 1 1 68 174 192 72
1119 4 2 1 1 68 192 174 93
1120 4 2 1 1 68 168 193 92
1121 4 2 1 1 193 168 68 72
1122 4 2 1 1 154 125 63 139
1123 4 2 1 1 154 63 125 130
1124 4 2 1 1 126 142 63 151
1125 4 2 1 1 63 142 126 129
1126 4 2 1 1 141 149 63 127
1127 4 2 1 1 63 149 141 153
$EndElements
